<svg
  width="59"
  height="45"
  viewBox="0 0 59 45"
  fill="none"
  xmlns="http://www.w3.org/2000/svg"
>
  <rect
    x="43"
    y="5.47382"
    width="11"
    height="11"
    rx="1"
    transform="rotate(-29.8425 43 5.47382)"
    fill="#FCA121"
  ></rect>
  <path
    d="M11.5645 25.0247C12.0886 24.492 12.9911 24.7015 13.2271 25.4105L16.9699 36.6567C17.2153 37.3941 16.5621 38.1167 15.8032 37.9476L3.65825 35.2406C2.89174 35.0698 2.6118 34.1234 3.16229 33.564L11.5645 25.0247Z"
    fill="#52CDB7"
  ></path>
</svg>
