<svg width="32" height="33" viewBox="0 0 32 33" fill="none" xmlns="http://www.w3.org/2000/svg">
<g clip-path="url(#clip0_1167_8496)">
<path d="M28.3919 25.4059C27.4501 26.6937 26.3147 27.8281 25.026 28.7686L22.5367 27.6072C22.2386 27.4705 21.9154 27.3967 21.5875 27.3906C21.2595 27.3845 20.9339 27.4462 20.6308 27.5717C20.3278 27.6972 20.054 27.884 19.8264 28.1202C19.5989 28.3564 19.4225 28.6371 19.3084 28.9446L18.3677 31.5298C16.7925 31.7762 15.1885 31.7762 13.6132 31.5298L12.6726 28.9446C12.558 28.6374 12.3815 28.357 12.1538 28.1211C11.9262 27.8851 11.6524 27.6986 11.3495 27.5731C11.0466 27.4476 10.7211 27.3859 10.3933 27.3917C10.0655 27.3976 9.74243 27.4709 9.44422 27.6072L6.95178 28.7686C5.66475 27.8271 4.53053 26.6929 3.58906 25.4059L4.75049 22.9135C4.88969 22.6157 4.96536 22.2922 4.97268 21.9635C4.97999 21.6349 4.9188 21.3083 4.79299 21.0047C4.66718 20.701 4.47952 20.4268 4.24194 20.1996C4.00437 19.9724 3.72209 19.7972 3.41309 19.6851L0.82786 18.7445C0.581469 17.1692 0.581469 15.5652 0.82786 13.9899L3.41309 13.0493C3.7203 12.9348 4.00063 12.7582 4.23659 12.5306C4.47255 12.3029 4.65909 12.0292 4.78457 11.7263C4.91005 11.4234 4.97179 11.0979 4.96592 10.7701C4.96006 10.4422 4.88673 10.1192 4.75049 9.82094L4.43054 9.10425" stroke="#171321" stroke-width="1.27982" stroke-linecap="round" stroke-linejoin="round"/>
<path d="M3.58887 7.33169C4.49401 6.09118 5.57882 4.99235 6.8076 4.07136C6.85366 4.03877 6.90751 4.01895 6.9637 4.01389C7.01989 4.00883 7.07642 4.01873 7.12756 4.04256L9.45682 5.1304C9.75468 5.2691 10.0781 5.34438 10.4066 5.35145C10.7351 5.35852 11.0615 5.29723 11.365 5.17148C11.6686 5.04573 11.9427 4.85825 12.1699 4.62095C12.3972 4.38365 12.5726 4.1017 12.6852 3.793L13.6258 1.20457C15.2011 0.958178 16.8051 0.958178 18.3803 1.20457L19.321 3.793C19.4335 4.1017 19.609 4.38365 19.8362 4.62095C20.0635 4.85825 20.3376 5.04573 20.6411 5.17148C20.9447 5.29723 21.271 5.35852 21.5995 5.35145C21.928 5.34438 22.2515 5.2691 22.5493 5.1304L25.0386 3.96577C26.3236 4.90761 27.4547 6.04308 28.3917 7.33169L27.227 9.82093C27.0883 10.1188 27.0131 10.4422 27.006 10.7707C26.9989 11.0992 27.0602 11.4256 27.186 11.7291C27.3117 12.0327 27.4992 12.3068 27.7365 12.534C27.9738 12.7613 28.2558 12.9367 28.5645 13.0493L31.1529 13.9899C31.3992 15.5652 31.3992 17.1692 31.1529 18.7444L28.5645 19.6851C28.2572 19.7996 27.9769 19.9762 27.741 20.2038C27.505 20.4314 27.3185 20.7052 27.193 21.0081C27.0675 21.311 27.0058 21.6365 27.0116 21.9643C27.0175 22.2921 27.0908 22.6152 27.227 22.9134L27.6142 23.6877" stroke="#171321" stroke-width="1.27982" stroke-linecap="round" stroke-linejoin="round"/>
<path d="M11.6621 18.5699L9.44092 16.3455L11.6621 14.1243" stroke="#171321" stroke-width="1.27982" stroke-linecap="round" stroke-linejoin="round"/>
<path d="M20.3477 14.1243L22.5721 16.3455L20.3477 18.5699" stroke="#171321" stroke-width="1.27982" stroke-linecap="round" stroke-linejoin="round"/>
<path d="M17.1644 12.9534L14.8447 19.7844" stroke="#171321" stroke-width="1.27982" stroke-linecap="round" stroke-linejoin="round"/>
</g>
<defs>
<clipPath id="clip0_1167_8496">
<rect width="31.9954" height="31.9954" fill="white" transform="translate(0 0.359863)"/>
</clipPath>
</defs>
</svg>
