<svg width="40" height="40" viewBox="0 0 40 40" fill="none" xmlns="http://www.w3.org/2000/svg">
<path d="M5.67999 30.572C5.24609 30.572 4.82997 30.3996 4.52316 30.0928C4.21635 29.786 4.04399 29.3699 4.04399 28.936V6.18396H3.84799C1.72399 6.18396 0.799988 7.90796 0.799988 10.036V29.964C0.799988 30.4693 0.899519 30.9697 1.0929 31.4365C1.28628 31.9034 1.56972 32.3276 1.92704 32.6849C2.28436 33.0422 2.70856 33.3257 3.17542 33.519C3.64228 33.7124 4.14266 33.812 4.64799 33.812H35.352C37.476 33.812 39.2 32.892 39.2 30.764V30.572H5.67999Z" fill="#E5E0FC"/>
<path d="M32.192 34.6119H4.572C3.36045 34.6109 2.19876 34.1294 1.34169 33.2731C0.484616 32.4168 0.00211764 31.2555 0 30.0439L0 9.95594C0.00211764 8.74439 0.484616 7.58312 1.34169 6.7268C2.19876 5.87048 3.36045 5.389 4.572 5.38794C4.78417 5.38794 4.98766 5.47222 5.13769 5.62225C5.28771 5.77228 5.372 5.97577 5.372 6.18794C5.372 6.40011 5.28771 6.6036 5.13769 6.75363C4.98766 6.90365 4.78417 6.98794 4.572 6.98794C3.78447 6.98794 3.02913 7.30051 2.47189 7.857C1.91465 8.4135 1.60106 9.16841 1.6 9.95594V30.0439C1.60106 30.8315 1.91465 31.5864 2.47189 32.1429C3.02913 32.6994 3.78447 33.0119 4.572 33.0119H32.192C32.4042 33.0119 32.6077 33.0962 32.7577 33.2463C32.9077 33.3963 32.992 33.5998 32.992 33.8119C32.992 34.0241 32.9077 34.2276 32.7577 34.3776C32.6077 34.5277 32.4042 34.6119 32.192 34.6119Z" fill="#380D75"/>
<path d="M35.428 34.6119C35.2158 34.6119 35.0124 34.5277 34.8623 34.3776C34.7123 34.2276 34.628 34.0241 34.628 33.8119C34.628 33.5998 34.7123 33.3963 34.8623 33.2463C35.0124 33.0962 35.2158 33.0119 35.428 33.0119C36.2155 33.0119 36.9709 32.6994 37.5281 32.1429C38.0854 31.5864 38.399 30.8315 38.4 30.0439V9.95594C38.399 9.16841 38.0854 8.4135 37.5281 7.857C36.9709 7.30051 36.2155 6.98794 35.428 6.98794H7.82802C7.61584 6.98794 7.41236 6.90365 7.26233 6.75363C7.1123 6.6036 7.02802 6.40011 7.02802 6.18794C7.02802 5.97577 7.1123 5.77228 7.26233 5.62225C7.41236 5.47222 7.61584 5.38794 7.82802 5.38794H35.428C36.6396 5.389 37.8013 5.87048 38.6583 6.7268C39.5154 7.58312 39.9979 8.74439 40 9.95594V30.0439C39.9979 31.2555 39.5154 32.4168 38.6583 33.2731C37.8013 34.1294 36.6396 34.6109 35.428 34.6119V34.6119Z" fill="#380D75"/>
<path d="M26.348 25.132C26.1818 25.132 26.0196 25.0803 25.8841 24.984C25.7486 24.8877 25.6464 24.7515 25.5919 24.5944C25.5373 24.4374 25.5331 24.2672 25.5797 24.1077C25.6263 23.9481 25.7215 23.807 25.852 23.704L30.556 20L25.852 16.296C25.7636 16.2333 25.6888 16.1532 25.6323 16.0607C25.5757 15.9683 25.5385 15.8653 25.523 15.758C25.5075 15.6507 25.5139 15.5414 25.5419 15.4366C25.57 15.3319 25.619 15.234 25.686 15.1488C25.753 15.0636 25.8367 14.9929 25.9318 14.941C26.027 14.8891 26.1317 14.8571 26.2397 14.8469C26.3476 14.8367 26.4565 14.8486 26.5597 14.8818C26.6629 14.915 26.7582 14.9688 26.84 15.04L32.344 19.372C32.4389 19.4468 32.5156 19.5422 32.5683 19.651C32.621 19.7598 32.6484 19.8791 32.6484 20C32.6484 20.1208 32.621 20.2401 32.5683 20.3489C32.5156 20.4577 32.4389 20.5531 32.344 20.628L26.84 24.96C26.6998 25.0706 26.5266 25.1312 26.348 25.132V25.132Z" fill="#380D75"/>
<path d="M13.652 25.132C13.4734 25.1312 13.3002 25.0706 13.16 24.96L7.65603 20.628C7.56114 20.5531 7.48446 20.4577 7.43174 20.3489C7.37901 20.2401 7.35162 20.1208 7.35162 20C7.35162 19.8791 7.37901 19.7598 7.43174 19.651C7.48446 19.5422 7.56114 19.4468 7.65603 19.372L13.16 15.04C13.2418 14.9688 13.3372 14.915 13.4404 14.8818C13.5436 14.8486 13.6524 14.8367 13.7604 14.8469C13.8683 14.8571 13.973 14.8891 14.0682 14.941C14.1634 14.9929 14.247 15.0636 14.314 15.1488C14.3811 15.234 14.4301 15.3319 14.4581 15.4366C14.4861 15.5414 14.4925 15.6507 14.477 15.758C14.4615 15.8653 14.4243 15.9683 14.3678 16.0607C14.3112 16.1532 14.2365 16.2333 14.148 16.296L9.44403 20L14.148 23.704C14.2785 23.807 14.3737 23.9481 14.4203 24.1077C14.467 24.2672 14.4627 24.4374 14.4081 24.5944C14.3536 24.7515 14.2515 24.8877 14.116 24.984C13.9804 25.0803 13.8183 25.132 13.652 25.132V25.132Z" fill="#380D75"/>
<path d="M17.456 27.3081C17.3505 27.3079 17.2459 27.2875 17.148 27.2481C17.0507 27.2078 16.9623 27.1487 16.8879 27.0742C16.8135 26.9996 16.7545 26.9111 16.7144 26.8138C16.6742 26.7164 16.6537 26.6121 16.654 26.5068C16.6543 26.4014 16.6754 26.2972 16.716 26.2001L22.172 13.2001C22.2127 13.1031 22.2721 13.0152 22.3468 12.9412C22.4215 12.8673 22.51 12.8088 22.6074 12.769C22.7047 12.7293 22.8089 12.7091 22.914 12.7096C23.0191 12.7101 23.1231 12.7313 23.22 12.7721C23.3169 12.8128 23.4049 12.8722 23.4788 12.9469C23.5528 13.0216 23.6113 13.1101 23.6511 13.2074C23.6908 13.3047 23.711 13.4089 23.7105 13.514C23.7099 13.6192 23.6887 13.7231 23.648 13.8201L18.192 26.8201C18.1308 26.9647 18.0283 27.088 17.8974 27.1748C17.7666 27.2616 17.613 27.3079 17.456 27.3081V27.3081Z" fill="#380D75"/>
</svg>
