<svg width="32" height="32" viewBox="0 0 32 32" fill="none" xmlns="http://www.w3.org/2000/svg">
<g clip-path="url(#clip0_1335_387)">
<path d="M24.16 32H7.84003C6.92004 32 6.03774 31.6345 5.38722 30.984C4.73669 30.3335 4.37123 29.4512 4.37123 28.5312V7.80799C4.36944 7.12515 4.56959 6.45702 4.94652 5.88764C5.32345 5.31826 5.86033 4.87304 6.48963 4.60799C6.64551 4.53466 6.81459 4.49355 6.98673 4.48713C7.15888 4.4807 7.33055 4.50909 7.49146 4.5706C7.65237 4.6321 7.79921 4.72545 7.92319 4.84505C8.04716 4.96466 8.14572 5.10806 8.21295 5.26666C8.28019 5.42527 8.31472 5.59581 8.31447 5.76807C8.31422 5.94034 8.2792 6.11078 8.21152 6.26919C8.14383 6.4276 8.04486 6.57072 7.92054 6.68997C7.79623 6.80922 7.64912 6.90215 7.48803 6.96319C7.32244 7.03366 7.1813 7.15139 7.08227 7.30165C6.98324 7.45191 6.9307 7.62803 6.93123 7.80799V28.5312C6.9329 28.7717 7.02919 29.0019 7.19926 29.172C7.36933 29.342 7.59952 29.4383 7.84003 29.44H24.16C24.4005 29.4383 24.6307 29.342 24.8008 29.172C24.9709 29.0019 25.0671 28.7717 25.0688 28.5312V7.80799C25.0696 7.62548 25.0157 7.44692 24.9142 7.29525C24.8127 7.14357 24.6682 7.0257 24.4992 6.95679C24.3346 6.90108 24.183 6.81241 24.0537 6.69619C23.9244 6.57996 23.8202 6.43863 23.7473 6.28079C23.6744 6.12296 23.6345 5.95194 23.6299 5.77816C23.6253 5.60438 23.6561 5.43149 23.7205 5.27002C23.7849 5.10855 23.8816 4.9619 24.0045 4.839C24.1275 4.71611 24.2742 4.61954 24.4357 4.5552C24.5972 4.49086 24.7701 4.46008 24.9438 4.46476C25.1176 4.46943 25.2886 4.50945 25.4464 4.58239C26.0877 4.83752 26.6381 5.27848 27.027 5.84866C27.4158 6.41885 27.6254 7.09223 27.6288 7.78239V28.5312C27.6288 29.4512 27.2634 30.3335 26.6128 30.984C25.9623 31.6345 25.08 32 24.16 32Z" fill="#7D2BD9"/>
<path d="M21.12 9.7917H10.88C10.5405 9.7917 10.2149 9.65684 9.97488 9.4168C9.73483 9.17675 9.59998 8.85118 9.59998 8.5117V4.1341C9.59998 3.79462 9.73483 3.46905 9.97488 3.229C10.2149 2.98896 10.5405 2.8541 10.88 2.8541H11.968C12.2494 2.01157 12.7921 1.28064 13.5171 0.767378C14.2421 0.254114 15.1118 -0.0147845 16 -0.000298469C16.8833 -0.000425381 17.7447 0.274286 18.4649 0.785745C19.1851 1.2972 19.7283 2.02007 20.0192 2.8541H21.12C21.4595 2.8541 21.785 2.98896 22.0251 3.229C22.2651 3.46905 22.4 3.79462 22.4 4.1341V8.5117C22.4 8.85118 22.2651 9.17675 22.0251 9.4168C21.785 9.65684 21.4595 9.7917 21.12 9.7917ZM12.16 7.2317H19.84V5.4141H18.9824C18.6609 5.41526 18.3508 5.29544 18.1137 5.07845C17.8765 4.86146 17.7297 4.56318 17.7024 4.2429C17.6973 3.79473 17.5157 3.36664 17.197 3.05152C16.8783 2.73639 16.4482 2.55967 16 2.5597C15.7768 2.55711 15.5554 2.59926 15.3489 2.68365C15.1423 2.76805 14.9547 2.89298 14.7972 3.05107C14.6397 3.20917 14.5155 3.39721 14.4319 3.60412C14.3482 3.81101 14.3069 4.03257 14.3104 4.2557C14.28 4.57368 14.1319 4.86883 13.8951 5.08317C13.6582 5.29751 13.3498 5.41555 13.0304 5.4141H12.16V7.2317Z" fill="#7D2BD9"/>
<path d="M13.8496 19.1168C13.6026 19.1143 13.3611 19.0434 13.152 18.912C12.8706 18.7233 12.6756 18.4307 12.6096 18.0984C12.5436 17.7661 12.6121 17.4211 12.8 17.1392L14.5856 14.4C14.7597 14.1305 15.0286 13.9363 15.3391 13.8557C15.6497 13.7751 15.9792 13.814 16.2624 13.9648L17.6832 14.72L18.7264 13.2608C18.925 12.985 19.225 12.7994 19.5604 12.7447C19.8959 12.6901 20.2393 12.771 20.5152 12.9696C20.791 13.1682 20.9766 13.4682 21.0312 13.8037C21.0858 14.1392 21.0049 14.4826 20.8064 14.7584L19.104 17.1264C18.9225 17.3765 18.6566 17.5525 18.3554 17.6219C18.0543 17.6914 17.7382 17.6495 17.4656 17.504L16.0704 16.7616L14.9248 18.56C14.8054 18.7344 14.6448 18.8764 14.4572 18.9736C14.2695 19.0707 14.0608 19.12 13.8496 19.1168Z" fill="#7D2BD9"/>
<path d="M21.0687 22.3424H10.7519C10.4124 22.3424 10.0869 22.2076 9.84683 21.9675C9.60678 21.7275 9.47192 21.4019 9.47192 21.0624V14.0224C9.47192 13.683 9.60678 13.3574 9.84683 13.1173C10.0869 12.8773 10.4124 12.7424 10.7519 12.7424C11.0914 12.7424 11.417 12.8773 11.657 13.1173C11.8971 13.3574 12.0319 13.683 12.0319 14.0224V19.7824H21.0687C21.4082 19.7824 21.7338 19.9173 21.9738 20.1573C22.2139 20.3974 22.3487 20.723 22.3487 21.0624C22.3487 21.4019 22.2139 21.7275 21.9738 21.9675C21.7338 22.2076 21.4082 22.3424 21.0687 22.3424Z" fill="#7D2BD9"/>
<path d="M12.2623 26.5856H10.7519C10.4124 26.5856 10.0869 26.4508 9.84683 26.2107C9.60678 25.9707 9.47192 25.6451 9.47192 25.3056C9.47192 24.9662 9.60678 24.6406 9.84683 24.4005C10.0869 24.1605 10.4124 24.0256 10.7519 24.0256H12.2623C12.6018 24.0256 12.9274 24.1605 13.1674 24.4005C13.4075 24.6406 13.5423 24.9662 13.5423 25.3056C13.5423 25.6451 13.4075 25.9707 13.1674 26.2107C12.9274 26.4508 12.6018 26.5856 12.2623 26.5856Z" fill="#7D2BD9"/>
<path d="M21.0688 26.5856H16C15.6605 26.5856 15.3349 26.4508 15.0949 26.2107C14.8548 25.9707 14.72 25.6451 14.72 25.3056C14.72 24.9662 14.8548 24.6406 15.0949 24.4005C15.3349 24.1605 15.6605 24.0256 16 24.0256H21.056C21.3954 24.0256 21.721 24.1605 21.9611 24.4005C22.2011 24.6406 22.336 24.9662 22.336 25.3056C22.336 25.6451 22.2011 25.9707 21.9611 26.2107C21.721 26.4508 21.3954 26.5856 21.056 26.5856H21.0688Z" fill="#7D2BD9"/>
</g>
<defs>
<clipPath id="clip0_1335_387">
<rect width="32" height="32" fill="white"/>
</clipPath>
</defs>
</svg>
