<svg width="100" height="100" viewBox="0 0 100 100" fill="none" xmlns="http://www.w3.org/2000/svg">
<g clip-path="url(#clip0_21_2294)">
<path d="M50 63.21C63.8071 63.21 75 52.0171 75 38.21C75 24.4029 63.8071 13.21 50 13.21C36.1929 13.21 25 24.4029 25 38.21C25 52.0171 36.1929 63.21 50 63.21Z" fill="#D7B9F3"/>
<path d="M50 65.2C44.6599 65.2 39.4397 63.6165 34.9996 60.6497C30.5595 57.6829 27.0988 53.466 25.0553 48.5324C23.0117 43.5988 22.477 38.17 23.5188 32.9326C24.5606 27.6951 27.1321 22.8841 30.9081 19.1081C34.6841 15.3321 39.4951 12.7606 44.7326 11.7188C49.9701 10.677 55.3989 11.2117 60.3325 13.2552C65.2661 15.2988 69.4829 18.7595 72.4497 23.1996C75.4165 27.6397 77 32.8599 77 38.2C77 38.7304 76.7893 39.2391 76.4142 39.6142C76.0392 39.9893 75.5304 40.2 75 40.2C74.4696 40.2 73.9609 39.9893 73.5858 39.6142C73.2107 39.2391 73 38.7304 73 38.2C72.9984 32.4972 70.8782 26.9984 67.0509 22.7707C63.2236 18.543 57.9622 15.8879 52.2877 15.3207C46.6132 14.7535 40.9303 16.3146 36.3419 19.7011C31.7535 23.0876 28.5868 28.0579 27.4564 33.6475C26.326 39.2371 27.3124 45.0474 30.2244 49.9507C33.1363 54.854 37.766 58.5007 43.2149 60.183C48.6639 61.8654 54.5436 61.4634 59.7129 59.0551C64.8822 56.6468 68.9725 52.404 71.19 47.15C71.2809 46.8931 71.4233 46.6574 71.6085 46.4575C71.7938 46.2576 72.0179 46.0977 72.2672 45.9875C72.5164 45.8773 72.7856 45.8193 73.0581 45.8169C73.3306 45.8145 73.6007 45.8679 73.8519 45.9737C74.1031 46.0794 74.33 46.2354 74.5187 46.4321C74.7073 46.6287 74.8539 46.8619 74.9492 47.1172C75.0445 47.3725 75.0867 47.6446 75.0731 47.9168C75.0595 48.1889 74.9904 48.4555 74.87 48.7C72.8056 53.5905 69.3455 57.764 64.9221 60.6987C60.4987 63.6334 55.3084 65.1991 50 65.2Z" fill="#380D75"/>
<path d="M69.81 100C69.4605 100.005 69.1158 99.9192 68.81 99.75L50 89.33L31.16 99.75C30.8546 99.9263 30.5081 100.019 30.1555 100.018C29.8029 100.017 29.4567 99.9232 29.1522 99.7455C28.8476 99.5679 28.5954 99.3128 28.4212 99.0063C28.2469 98.6997 28.1568 98.3526 28.16 98V75.56C28.16 75.2973 28.2117 75.0373 28.3122 74.7946C28.4127 74.552 28.5601 74.3315 28.7458 74.1458C28.9315 73.96 29.152 73.8127 29.3946 73.7122C29.6373 73.6117 29.8973 73.56 30.16 73.56C30.4226 73.56 30.6827 73.6117 30.9254 73.7122C31.168 73.8127 31.3885 73.96 31.5742 74.1458C31.7599 74.3315 31.9072 74.552 32.0078 74.7946C32.1083 75.0373 32.16 75.2973 32.16 75.56V94.56L49 85.3C49.2968 85.1354 49.6306 85.049 49.97 85.049C50.3094 85.049 50.6432 85.1354 50.94 85.3L67.78 94.61V66.72C67.78 66.1895 67.9907 65.6808 68.3658 65.3058C68.7408 64.9307 69.2496 64.72 69.78 64.72C70.3104 64.72 70.8191 64.9307 71.1942 65.3058C71.5693 65.6808 71.78 66.1895 71.78 66.72V98C71.7779 98.349 71.6845 98.6914 71.509 98.9931C71.3336 99.2949 71.0823 99.5455 70.78 99.72C70.4872 99.8977 70.1524 99.9944 69.81 100Z" fill="#380D75"/>
<path d="M46.2901 47.55C45.7662 47.5584 45.2599 47.3609 44.8801 47L39.5001 41.59C39.1248 41.2147 38.9139 40.7057 38.9139 40.175C38.9139 39.6443 39.1248 39.1353 39.5001 38.76C39.8753 38.3847 40.3843 38.1739 40.9151 38.1739C41.4458 38.1739 41.9548 38.3847 42.3301 38.76L46.3301 42.76L57.6701 31.34C58.0453 30.9647 58.5543 30.7539 59.0851 30.7539C59.6158 30.7539 60.1248 30.9647 60.5001 31.34C60.8753 31.7153 61.0862 32.2243 61.0862 32.755C61.0862 33.2857 60.8753 33.7947 60.5001 34.17L47.7101 47C47.3278 47.3634 46.8174 47.5611 46.2901 47.55Z" fill="#380D75"/>
<path d="M50 76.41C46.52 76.41 43.78 74.03 41.36 71.93C40.1483 70.7339 38.7667 69.723 37.26 68.93C35.5577 68.3923 33.7852 68.1092 32 68.09C28.86 67.85 25.31 67.58 23 65.22C20.69 62.86 20.38 59.31 20.14 56.22C20.1081 54.4402 19.815 52.6747 19.27 50.98C18.477 49.4733 17.4661 48.0918 16.27 46.88C14.17 44.47 11.78 41.73 11.78 38.25C11.78 34.77 14.17 32.03 16.27 29.61C17.4661 28.3982 18.477 27.0167 19.27 25.51C19.8159 23.8156 20.109 22.0499 20.14 20.27C20.38 17.14 20.65 13.59 23 11.27C25.35 8.95 28.89 8.57 32 8.33C33.7766 8.29814 35.5388 8.005 37.23 7.46C38.7362 6.6661 40.1176 5.65532 41.33 4.46C43.78 2.38 46.52 0 50 0C53.48 0 56.22 2.38 58.64 4.48C59.8525 5.67531 61.2339 6.6861 62.74 7.48C64.4419 8.02112 66.2144 8.30756 68 8.33C71.14 8.57 74.69 8.84 77 11.19C79.31 13.54 79.62 17.1 79.86 20.19C79.8911 21.9699 80.1842 23.7356 80.73 25.43C81.5231 26.9367 82.5339 28.3182 83.73 29.53C85.84 31.95 88.22 34.69 88.22 38.17C88.22 41.65 85.84 44.39 83.73 46.8C82.5339 48.0118 81.5231 49.3933 80.73 50.9C80.1851 52.5947 79.8919 54.3602 79.86 56.14C79.62 59.27 79.35 62.83 77 65.14C74.65 67.45 71.09 67.77 68 68.01C66.2235 68.0419 64.4612 68.335 62.77 68.88C61.2633 69.673 59.8818 70.6839 58.67 71.88C56.22 74 53.48 76.41 50 76.41ZM50 4C48 4 46.06 5.7 44 7.5C42.4714 8.9849 40.7161 10.217 38.8 11.15C36.7214 11.8763 34.5414 12.2711 32.34 12.32C29.66 12.52 27.13 12.71 25.82 14.02C24.51 15.33 24.32 17.86 24.12 20.54C24.0679 22.7419 23.6697 24.9219 22.94 27C22.0068 28.9104 20.7784 30.6619 19.3 32.19C17.49 34.27 15.79 36.19 15.79 38.19C15.79 40.19 17.49 42.13 19.29 44.19C20.7725 45.7169 22.0044 47.4685 22.94 49.38C23.6656 51.4623 24.0603 53.6455 24.11 55.85C24.31 58.53 24.51 61.06 25.81 62.36C27.11 63.66 29.65 63.86 32.33 64.07C34.5309 64.1157 36.7108 64.5071 38.79 65.23C40.7095 66.1749 42.4678 67.4168 44 68.91C46.07 70.71 48 72.41 50 72.41C52 72.41 53.94 70.71 56 68.91C57.5314 67.4283 59.2861 66.1966 61.2 65.26C63.2793 64.5371 65.4592 64.1457 67.66 64.1C70.34 63.89 72.87 63.7 74.18 62.39C75.49 61.08 75.68 58.56 75.88 55.88C75.9297 53.6755 76.3245 51.4923 77.05 49.41C77.9857 47.501 79.2138 45.7499 80.69 44.22C82.5 42.15 84.2 40.22 84.2 38.22C84.2 36.22 82.5 34.28 80.69 32.22C79.2126 30.6821 77.9875 28.9204 77.06 27C76.3338 24.9213 75.9389 22.7414 75.89 20.54C75.69 17.86 75.49 15.33 74.19 14.02C72.89 12.71 70.35 12.52 67.67 12.32C65.4687 12.2711 63.2887 11.8763 61.21 11.15C59.2905 10.2179 57.5317 8.98577 56 7.5C53.94 5.7 52 4 50 4Z" fill="#380D75"/>
</g>
<defs>
<clipPath id="clip0_21_2294">
<rect width="100" height="100" fill="white"/>
</clipPath>
</defs>
</svg>
