<svg width="981" height="434" viewBox="0 0 981 434" fill="none" xmlns="http://www.w3.org/2000/svg">
<path opacity="0.2" d="M936.257 86.9772C901.411 41.2555 849.626 11.0924 792.291 3.12181C734.957 -4.84874 676.768 10.0262 630.523 44.4749V44.4749L490.509 149.291L350.728 44.4749C318.476 20.4422 280.115 5.72547 239.911 1.96136C199.706 -1.80276 159.234 5.53306 122.994 23.1532C86.7533 40.7733 56.1656 67.9874 34.631 101.769C13.0965 135.551 1.45928 174.576 1.01332 214.507C0.567357 254.437 11.33 293.708 32.1048 327.952C52.8796 362.196 82.8524 390.071 118.69 408.478C154.528 426.886 194.827 435.103 235.106 432.218C275.384 429.333 314.064 415.457 346.845 392.135L347.855 391.367C349.951 389.87 352.048 388.296 354.106 386.722L490.626 284.516L626.874 386.722C628.932 388.296 631.028 389.87 633.125 391.367L634.135 392.135C676.53 422.283 728.449 436.411 780.474 431.954C832.5 427.498 881.189 404.754 917.71 367.847C954.232 330.939 976.17 282.311 979.544 230.782C982.918 179.253 967.505 128.234 936.101 86.9772H936.257ZM284.914 303.099L283.672 304.059C267.335 315.911 247.987 323.039 227.79 324.648C207.593 326.256 187.342 322.282 169.297 313.168C151.252 304.054 136.124 290.159 125.603 273.036C115.082 255.912 109.582 236.234 109.717 216.199C109.851 196.163 115.615 176.559 126.365 159.575C137.116 142.592 152.428 128.897 170.594 120.021C188.76 111.145 209.063 107.437 229.236 109.31C249.41 111.184 268.66 118.566 284.837 130.631V130.631L400.117 216.903L284.914 303.099ZM870.093 231.992C867.458 250.491 860.019 267.998 848.502 282.807C836.984 297.615 821.782 309.219 804.377 316.486C786.973 323.753 767.961 326.435 749.196 324.27C730.431 322.105 712.554 315.168 697.308 304.135L696.065 303.176L580.862 216.98L696.143 130.708C713.395 117.834 734.121 110.311 755.699 109.089C777.276 107.868 798.736 113.005 817.36 123.849C835.984 134.693 850.936 150.757 860.323 170.008C869.71 189.258 873.11 210.83 870.093 231.992V231.992Z" stroke="#D1D0D3" stroke-width="1.76238" stroke-miterlimit="10"/>
<mask id="mask0_1095_10732" style="mask-type:alpha" maskUnits="userSpaceOnUse" x="1" y="1" width="980" height="432">
<path d="M936.257 86.9772C901.411 41.2555 849.626 11.0924 792.291 3.12181C734.957 -4.84874 676.768 10.0262 630.523 44.4749L490.509 149.291L350.728 44.4749C318.476 20.4422 280.115 5.72547 239.911 1.96136C199.706 -1.80276 159.234 5.53306 122.994 23.1532C86.7533 40.7733 56.1656 67.9874 34.6311 101.769C13.0965 135.551 1.45928 174.576 1.01332 214.507C0.567357 254.437 11.33 293.708 32.1048 327.952C52.8796 362.196 82.8524 390.071 118.69 408.478C154.528 426.886 194.827 435.103 235.106 432.218C275.384 429.333 314.064 415.457 346.845 392.135L347.855 391.367C349.951 389.87 352.048 388.296 354.106 386.722L490.626 284.516L626.874 386.722C628.932 388.296 631.028 389.87 633.125 391.367L634.135 392.135C676.53 422.283 728.449 436.411 780.474 431.954C832.5 427.498 881.189 404.754 917.711 367.846C954.232 330.939 976.17 282.311 979.544 230.782C982.918 179.253 967.505 128.234 936.101 86.9772H936.257ZM284.914 303.099L283.672 304.059C267.335 315.911 247.987 323.039 227.79 324.648C207.593 326.256 187.342 322.282 169.297 313.168C151.252 304.054 136.124 290.159 125.603 273.036C115.082 255.912 109.582 236.234 109.717 216.199C109.851 196.163 115.615 176.559 126.365 159.575C137.116 142.592 152.428 128.897 170.594 120.021C188.76 111.145 209.063 107.437 229.236 109.31C249.41 111.184 268.66 118.566 284.837 130.631L400.117 216.903L284.914 303.099ZM870.093 231.992C867.458 250.491 860.019 267.998 848.502 282.807C836.984 297.615 821.782 309.219 804.378 316.486C786.973 323.753 767.961 326.435 749.196 324.27C730.431 322.105 712.554 315.168 697.308 304.135L696.065 303.176L580.862 216.98L696.143 130.708C713.395 117.834 734.121 110.311 755.699 109.089C777.276 107.868 798.736 113.005 817.36 123.849C835.984 134.693 850.936 150.757 860.323 170.008C869.71 189.258 873.11 210.83 870.093 231.992Z" fill="#C4C4C4"/>
</mask>
<g mask="url(#mask0_1095_10732)">
<path d="M767.195 53.8711C814.339 54.1648 911.798 84.0077 924.487 201.03" stroke="#10B1B1" stroke-width="127.772"/>
<path d="M812.126 372.862C763.22 386.961 627.957 372.421 532.789 245.971" stroke="#FC6D26" stroke-width="136.584"/>
<path d="M205.871 56.5146C157.846 56.8084 61.7969 88.5899 61.7969 213.366" stroke="#A989F5" stroke-width="127.772"/>
<path d="M56.0703 211.604C56.07 268.881 86.9108 378.149 215.564 378.149C344.218 378.149 355.675 295.317 585.224 144.634C629.283 115.712 708.325 50.3467 767.189 50.3467H772" stroke="#7759C2" stroke-width="123.32"/>
<path d="M803.758 375.946C845.467 364.344 928.005 312.06 924.481 195.743" stroke="#FCA326" stroke-width="127.772"/>
<path d="M438.945 187.812C405.9 144.193 312.935 56.9551 205.43 56.9551" stroke="#E24329" stroke-width="127.772"/>
</g>
<path d="M436.789 227.818L439.439 235.832H439.544L442.188 227.818H444.217L440.627 238H438.35L434.766 227.818H436.789ZM448.039 238.149C447.273 238.149 446.612 237.99 446.055 237.672C445.502 237.35 445.076 236.896 444.777 236.31C444.479 235.72 444.33 235.025 444.33 234.227C444.33 233.441 444.479 232.752 444.777 232.158C445.079 231.562 445.5 231.098 446.04 230.766C446.58 230.432 447.215 230.264 447.944 230.264C448.415 230.264 448.859 230.34 449.277 230.493C449.698 230.642 450.069 230.874 450.39 231.189C450.715 231.504 450.97 231.905 451.156 232.392C451.342 232.876 451.434 233.453 451.434 234.122V234.674H445.175V233.461H449.709C449.706 233.116 449.631 232.81 449.486 232.541C449.34 232.269 449.136 232.056 448.874 231.9C448.616 231.744 448.314 231.666 447.969 231.666C447.601 231.666 447.278 231.756 447 231.935C446.721 232.11 446.504 232.342 446.348 232.631C446.196 232.916 446.118 233.229 446.115 233.57V234.629C446.115 235.073 446.196 235.455 446.358 235.773C446.521 236.088 446.748 236.33 447.04 236.499C447.331 236.664 447.673 236.747 448.064 236.747C448.325 236.747 448.562 236.711 448.775 236.638C448.987 236.562 449.171 236.451 449.326 236.305C449.482 236.159 449.6 235.978 449.679 235.763L451.36 235.952C451.254 236.396 451.052 236.784 450.753 237.115C450.458 237.443 450.08 237.698 449.62 237.881C449.159 238.06 448.632 238.149 448.039 238.149ZM452.957 238V230.364H454.702V231.636H454.782C454.921 231.196 455.159 230.856 455.497 230.617C455.839 230.375 456.228 230.254 456.666 230.254C456.765 230.254 456.876 230.259 456.999 230.269C457.125 230.276 457.229 230.287 457.312 230.304V231.96C457.236 231.933 457.115 231.91 456.949 231.89C456.787 231.867 456.629 231.855 456.477 231.855C456.149 231.855 455.854 231.926 455.592 232.069C455.333 232.208 455.13 232.402 454.98 232.651C454.831 232.899 454.757 233.186 454.757 233.511V238H452.957ZM458.508 238V230.364H460.307V238H458.508ZM459.413 229.28C459.128 229.28 458.882 229.185 458.677 228.996C458.471 228.804 458.369 228.574 458.369 228.305C458.369 228.034 458.471 227.803 458.677 227.614C458.882 227.422 459.128 227.326 459.413 227.326C459.701 227.326 459.946 227.422 460.148 227.614C460.354 227.803 460.457 228.034 460.457 228.305C460.457 228.574 460.354 228.804 460.148 228.996C459.946 229.185 459.701 229.28 459.413 229.28ZM466.026 230.364V231.756H461.512V230.364H466.026ZM462.64 238V229.643C462.64 229.129 462.746 228.701 462.959 228.36C463.174 228.019 463.462 227.763 463.824 227.594C464.185 227.425 464.586 227.341 465.027 227.341C465.338 227.341 465.615 227.366 465.857 227.415C466.099 227.465 466.278 227.51 466.394 227.55L466.036 228.942C465.96 228.919 465.864 228.895 465.748 228.872C465.632 228.846 465.502 228.832 465.36 228.832C465.025 228.832 464.788 228.914 464.649 229.076C464.513 229.235 464.445 229.464 464.445 229.762V238H462.64ZM468.554 240.864C468.309 240.864 468.082 240.844 467.873 240.804C467.667 240.768 467.503 240.724 467.381 240.675L467.798 239.273C468.06 239.349 468.294 239.385 468.499 239.382C468.705 239.379 468.886 239.314 469.041 239.188C469.2 239.066 469.335 238.86 469.444 238.572L469.598 238.159L466.829 230.364H468.738L470.498 236.131H470.578L472.342 230.364H474.256L471.199 238.925C471.056 239.329 470.868 239.675 470.632 239.964C470.397 240.255 470.109 240.478 469.767 240.63C469.429 240.786 469.025 240.864 468.554 240.864Z" fill="white"/>
<path d="M71.3314 107.818H73.5885L76.6112 115.196H76.7306L79.7533 107.818H82.0104V118H80.2405V111.005H80.146L77.3321 117.97H76.0097L73.1958 110.99H73.1013V118H71.3314V107.818ZM86.1368 118.154C85.6529 118.154 85.2171 118.068 84.8293 117.896C84.4448 117.72 84.1399 117.461 83.9145 117.12C83.6924 116.779 83.5814 116.358 83.5814 115.857C83.5814 115.426 83.661 115.07 83.82 114.788C83.9791 114.507 84.1962 114.281 84.4713 114.112C84.7464 113.943 85.0563 113.816 85.401 113.729C85.749 113.64 86.1086 113.575 86.4798 113.536C86.9273 113.489 87.2902 113.448 87.5686 113.411C87.847 113.371 88.0492 113.312 88.1752 113.232C88.3044 113.149 88.3691 113.022 88.3691 112.849V112.82C88.3691 112.445 88.258 112.155 88.036 111.95C87.8139 111.744 87.4941 111.641 87.0764 111.641C86.6356 111.641 86.286 111.737 86.0274 111.93C85.7722 112.122 85.5999 112.349 85.5104 112.611L83.83 112.372C83.9626 111.908 84.1813 111.52 84.4862 111.209C84.7912 110.894 85.164 110.659 85.6048 110.503C86.0457 110.344 86.5329 110.264 87.0665 110.264C87.4344 110.264 87.8006 110.307 88.1652 110.393C88.5298 110.48 88.8629 110.622 89.1645 110.821C89.4661 111.017 89.7081 111.283 89.8904 111.621C90.076 111.96 90.1688 112.382 90.1688 112.889V118H88.4387V116.951H88.379C88.2696 117.163 88.1155 117.362 87.9166 117.548C87.7211 117.73 87.4742 117.877 87.1759 117.99C86.8809 118.099 86.5345 118.154 86.1368 118.154ZM86.6041 116.832C86.9654 116.832 87.2786 116.76 87.5438 116.618C87.8089 116.472 88.0128 116.28 88.1553 116.041C88.3011 115.803 88.374 115.542 88.374 115.261V114.361C88.3177 114.407 88.2216 114.45 88.0857 114.49C87.9531 114.53 87.8039 114.565 87.6382 114.594C87.4725 114.624 87.3084 114.651 87.146 114.674C86.9836 114.697 86.8428 114.717 86.7235 114.734C86.455 114.77 86.2147 114.83 86.0026 114.913C85.7905 114.996 85.6231 115.112 85.5004 115.261C85.3778 115.406 85.3165 115.595 85.3165 115.827C85.3165 116.159 85.4375 116.409 85.6794 116.578C85.9214 116.747 86.2296 116.832 86.6041 116.832ZM93.7781 113.526V118H91.9784V110.364H93.6986V111.661H93.7881C93.9637 111.234 94.2438 110.894 94.6283 110.642C95.0161 110.39 95.495 110.264 96.0651 110.264C96.5921 110.264 97.0511 110.377 97.4422 110.602C97.8366 110.828 98.1415 111.154 98.357 111.582C98.5757 112.009 98.6834 112.528 98.6801 113.138V118H96.8804V113.416C96.8804 112.906 96.7478 112.506 96.4827 112.218C96.2209 111.93 95.8579 111.786 95.3939 111.786C95.079 111.786 94.799 111.855 94.5537 111.994C94.3118 112.13 94.1212 112.327 93.982 112.586C93.8461 112.844 93.7781 113.158 93.7781 113.526ZM102.707 118.154C102.223 118.154 101.787 118.068 101.4 117.896C101.015 117.72 100.71 117.461 100.485 117.12C100.263 116.779 100.152 116.358 100.152 115.857C100.152 115.426 100.231 115.07 100.39 114.788C100.549 114.507 100.767 114.281 101.042 114.112C101.317 113.943 101.627 113.816 101.971 113.729C102.319 113.64 102.679 113.575 103.05 113.536C103.498 113.489 103.861 113.448 104.139 113.411C104.417 113.371 104.62 113.312 104.745 113.232C104.875 113.149 104.939 113.022 104.939 112.849V112.82C104.939 112.445 104.828 112.155 104.606 111.95C104.384 111.744 104.064 111.641 103.647 111.641C103.206 111.641 102.856 111.737 102.598 111.93C102.343 112.122 102.17 112.349 102.081 112.611L100.4 112.372C100.533 111.908 100.752 111.52 101.057 111.209C101.361 110.894 101.734 110.659 102.175 110.503C102.616 110.344 103.103 110.264 103.637 110.264C104.005 110.264 104.371 110.307 104.736 110.393C105.1 110.48 105.433 110.622 105.735 110.821C106.036 111.017 106.278 111.283 106.461 111.621C106.646 111.96 106.739 112.382 106.739 112.889V118H105.009V116.951H104.949C104.84 117.163 104.686 117.362 104.487 117.548C104.291 117.73 104.044 117.877 103.746 117.99C103.451 118.099 103.105 118.154 102.707 118.154ZM103.174 116.832C103.536 116.832 103.849 116.76 104.114 116.618C104.379 116.472 104.583 116.28 104.726 116.041C104.871 115.803 104.944 115.542 104.944 115.261V114.361C104.888 114.407 104.792 114.45 104.656 114.49C104.523 114.53 104.374 114.565 104.209 114.594C104.043 114.624 103.879 114.651 103.716 114.674C103.554 114.697 103.413 114.717 103.294 114.734C103.025 114.77 102.785 114.83 102.573 114.913C102.361 114.996 102.193 115.112 102.071 115.261C101.948 115.406 101.887 115.595 101.887 115.827C101.887 116.159 102.008 116.409 102.25 116.578C102.492 116.747 102.8 116.832 103.174 116.832ZM111.87 121.023C111.223 121.023 110.668 120.935 110.204 120.759C109.74 120.587 109.367 120.355 109.086 120.063C108.804 119.772 108.608 119.448 108.499 119.094L110.12 118.701C110.193 118.85 110.299 118.998 110.438 119.143C110.577 119.293 110.764 119.415 111 119.511C111.238 119.611 111.538 119.661 111.9 119.661C112.41 119.661 112.833 119.536 113.167 119.288C113.502 119.042 113.669 118.638 113.669 118.075V116.628H113.58C113.487 116.813 113.351 117.004 113.172 117.2C112.997 117.395 112.763 117.559 112.471 117.692C112.183 117.824 111.82 117.891 111.383 117.891C110.796 117.891 110.264 117.753 109.787 117.478C109.313 117.2 108.935 116.785 108.653 116.235C108.375 115.682 108.236 114.989 108.236 114.157C108.236 113.318 108.375 112.611 108.653 112.034C108.935 111.454 109.314 111.015 109.792 110.717C110.269 110.415 110.801 110.264 111.388 110.264C111.835 110.264 112.203 110.34 112.491 110.493C112.783 110.642 113.015 110.823 113.187 111.035C113.36 111.244 113.491 111.441 113.58 111.626H113.679V110.364H115.454V118.124C115.454 118.777 115.299 119.317 114.987 119.745C114.675 120.173 114.249 120.492 113.709 120.705C113.169 120.917 112.556 121.023 111.87 121.023ZM111.885 116.479C112.266 116.479 112.591 116.386 112.859 116.2C113.128 116.015 113.331 115.748 113.471 115.4C113.61 115.052 113.679 114.634 113.679 114.147C113.679 113.666 113.61 113.246 113.471 112.884C113.335 112.523 113.133 112.243 112.864 112.044C112.599 111.842 112.272 111.741 111.885 111.741C111.484 111.741 111.149 111.845 110.88 112.054C110.612 112.263 110.41 112.549 110.274 112.914C110.138 113.275 110.07 113.686 110.07 114.147C110.07 114.614 110.138 115.024 110.274 115.375C110.413 115.723 110.617 115.995 110.885 116.19C111.157 116.383 111.49 116.479 111.885 116.479ZM120.679 118.149C119.914 118.149 119.253 117.99 118.696 117.672C118.142 117.35 117.716 116.896 117.418 116.31C117.12 115.72 116.971 115.025 116.971 114.227C116.971 113.441 117.12 112.752 117.418 112.158C117.72 111.562 118.141 111.098 118.681 110.766C119.221 110.432 119.856 110.264 120.585 110.264C121.056 110.264 121.5 110.34 121.917 110.493C122.338 110.642 122.709 110.874 123.031 111.189C123.356 111.504 123.611 111.905 123.797 112.392C123.982 112.876 124.075 113.453 124.075 114.122V114.674H117.816V113.461H122.35C122.347 113.116 122.272 112.81 122.126 112.541C121.98 112.269 121.776 112.056 121.515 111.9C121.256 111.744 120.955 111.666 120.61 111.666C120.242 111.666 119.919 111.756 119.64 111.935C119.362 112.11 119.145 112.342 118.989 112.631C118.837 112.916 118.759 113.229 118.755 113.57V114.629C118.755 115.073 118.837 115.455 118.999 115.773C119.161 116.088 119.388 116.33 119.68 116.499C119.972 116.664 120.313 116.747 120.704 116.747C120.966 116.747 121.203 116.711 121.415 116.638C121.627 116.562 121.811 116.451 121.967 116.305C122.123 116.159 122.241 115.978 122.32 115.763L124 115.952C123.894 116.396 123.692 116.784 123.394 117.115C123.099 117.443 122.721 117.698 122.26 117.881C121.8 118.06 121.273 118.149 120.679 118.149Z" fill="white"/>
<path d="M71.389 313V302.818H75.2072C75.9894 302.818 76.6457 302.964 77.176 303.256C77.7096 303.547 78.1123 303.948 78.3841 304.459C78.6592 304.966 78.7967 305.543 78.7967 306.189C78.7967 306.842 78.6592 307.422 78.3841 307.929C78.109 308.436 77.7029 308.835 77.166 309.127C76.6291 309.415 75.9679 309.56 75.1824 309.56H72.6518V308.043H74.9338C75.3912 308.043 75.7657 307.964 76.0574 307.805C76.349 307.646 76.5645 307.427 76.7037 307.148C76.8462 306.87 76.9174 306.55 76.9174 306.189C76.9174 305.828 76.8462 305.509 76.7037 305.234C76.5645 304.959 76.3474 304.746 76.0524 304.593C75.7607 304.437 75.3845 304.359 74.9238 304.359H73.2335V313H71.389ZM82.119 302.818V313H80.3192V302.818H82.119ZM86.1671 313.154C85.6832 313.154 85.2473 313.068 84.8596 312.896C84.4751 312.72 84.1702 312.461 83.9448 312.12C83.7227 311.779 83.6117 311.358 83.6117 310.857C83.6117 310.426 83.6912 310.07 83.8503 309.788C84.0094 309.507 84.2265 309.281 84.5016 309.112C84.7767 308.943 85.0866 308.816 85.4313 308.729C85.7793 308.64 86.1389 308.575 86.5101 308.536C86.9576 308.489 87.3205 308.448 87.5989 308.411C87.8773 308.371 88.0795 308.312 88.2054 308.232C88.3347 308.149 88.3993 308.022 88.3993 307.849V307.82C88.3993 307.445 88.2883 307.155 88.0662 306.95C87.8442 306.744 87.5243 306.641 87.1067 306.641C86.6659 306.641 86.3162 306.737 86.0577 306.93C85.8025 307.122 85.6301 307.349 85.5407 307.611L83.8603 307.372C83.9928 306.908 84.2116 306.52 84.5165 306.209C84.8214 305.894 85.1943 305.659 85.6351 305.503C86.0759 305.344 86.5632 305.264 87.0968 305.264C87.4647 305.264 87.8309 305.307 88.1955 305.393C88.5601 305.48 88.8932 305.622 89.1948 305.821C89.4964 306.017 89.7383 306.283 89.9206 306.621C90.1062 306.96 90.199 307.382 90.199 307.889V313H88.4689V311.951H88.4093C88.2999 312.163 88.1458 312.362 87.9469 312.548C87.7514 312.73 87.5044 312.877 87.2061 312.99C86.9112 313.099 86.5648 313.154 86.1671 313.154ZM86.6344 311.832C86.9957 311.832 87.3089 311.76 87.574 311.618C87.8392 311.472 88.043 311.28 88.1855 311.041C88.3314 310.803 88.4043 310.542 88.4043 310.261V309.361C88.348 309.407 88.2518 309.45 88.1159 309.49C87.9834 309.53 87.8342 309.565 87.6685 309.594C87.5028 309.624 87.3387 309.651 87.1763 309.674C87.0139 309.697 86.873 309.717 86.7537 309.734C86.4853 309.77 86.245 309.83 86.0328 309.913C85.8207 309.996 85.6534 310.112 85.5307 310.261C85.4081 310.406 85.3468 310.595 85.3468 310.827C85.3468 311.159 85.4677 311.409 85.7097 311.578C85.9516 311.747 86.2599 311.832 86.6344 311.832ZM93.8084 308.526V313H92.0087V305.364H93.7289V306.661H93.8184C93.994 306.234 94.2741 305.894 94.6586 305.642C95.0463 305.39 95.5253 305.264 96.0953 305.264C96.6223 305.264 97.0814 305.377 97.4725 305.602C97.8669 305.828 98.1718 306.154 98.3873 306.582C98.606 307.009 98.7137 307.528 98.7104 308.138V313H96.9107V308.416C96.9107 307.906 96.7781 307.506 96.513 307.218C96.2511 306.93 95.8882 306.786 95.4242 306.786C95.1093 306.786 94.8292 306.855 94.584 306.994C94.342 307.13 94.1515 307.327 94.0123 307.586C93.8764 307.844 93.8084 308.158 93.8084 308.526Z" fill="white"/>
<path d="M229.963 374.254H228.103C228.05 373.949 227.952 373.679 227.81 373.443C227.667 373.205 227.49 373.002 227.278 372.837C227.066 372.671 226.824 372.547 226.552 372.464C226.284 372.378 225.994 372.335 225.682 372.335C225.129 372.335 224.638 372.474 224.21 372.752C223.783 373.027 223.448 373.432 223.206 373.965C222.964 374.496 222.843 375.143 222.843 375.909C222.843 376.688 222.964 377.344 223.206 377.878C223.451 378.408 223.786 378.809 224.21 379.081C224.638 379.349 225.127 379.484 225.677 379.484C225.982 379.484 226.267 379.444 226.532 379.364C226.801 379.281 227.041 379.161 227.253 379.001C227.469 378.842 227.649 378.647 227.795 378.415C227.944 378.183 228.047 377.918 228.103 377.619L229.963 377.629C229.893 378.113 229.742 378.567 229.51 378.991C229.282 379.416 228.982 379.79 228.61 380.115C228.239 380.437 227.805 380.688 227.308 380.871C226.811 381.05 226.259 381.139 225.652 381.139C224.757 381.139 223.959 380.932 223.256 380.518C222.553 380.103 222 379.505 221.595 378.723C221.191 377.941 220.989 377.003 220.989 375.909C220.989 374.812 221.193 373.874 221.6 373.095C222.008 372.313 222.563 371.715 223.266 371.3C223.969 370.886 224.764 370.679 225.652 370.679C226.219 370.679 226.746 370.759 227.233 370.918C227.72 371.077 228.155 371.31 228.536 371.619C228.917 371.924 229.23 372.298 229.475 372.742C229.724 373.183 229.886 373.687 229.963 374.254ZM231.572 381V373.364H233.317V374.636H233.397C233.536 374.196 233.775 373.856 234.113 373.617C234.454 373.375 234.843 373.254 235.281 373.254C235.38 373.254 235.491 373.259 235.614 373.269C235.74 373.276 235.844 373.287 235.927 373.304V374.96C235.851 374.933 235.73 374.91 235.564 374.89C235.402 374.867 235.245 374.855 235.092 374.855C234.764 374.855 234.469 374.926 234.207 375.069C233.949 375.208 233.745 375.402 233.596 375.651C233.446 375.899 233.372 376.186 233.372 376.511V381H231.572ZM240.189 381.149C239.424 381.149 238.762 380.99 238.206 380.672C237.652 380.35 237.226 379.896 236.928 379.31C236.63 378.72 236.48 378.025 236.48 377.227C236.48 376.441 236.63 375.752 236.928 375.158C237.229 374.562 237.65 374.098 238.191 373.766C238.731 373.432 239.366 373.264 240.095 373.264C240.565 373.264 241.009 373.34 241.427 373.493C241.848 373.642 242.219 373.874 242.541 374.189C242.866 374.504 243.121 374.905 243.306 375.392C243.492 375.876 243.585 376.453 243.585 377.122V377.674H237.326V376.461H241.86C241.856 376.116 241.782 375.81 241.636 375.541C241.49 375.269 241.286 375.056 241.024 374.9C240.766 374.744 240.464 374.666 240.12 374.666C239.752 374.666 239.429 374.756 239.15 374.935C238.872 375.11 238.655 375.342 238.499 375.631C238.346 375.916 238.268 376.229 238.265 376.57V377.629C238.265 378.073 238.346 378.455 238.509 378.773C238.671 379.088 238.898 379.33 239.19 379.499C239.482 379.664 239.823 379.747 240.214 379.747C240.476 379.747 240.713 379.711 240.925 379.638C241.137 379.562 241.321 379.451 241.477 379.305C241.633 379.159 241.75 378.978 241.83 378.763L243.51 378.952C243.404 379.396 243.202 379.784 242.904 380.115C242.609 380.443 242.231 380.698 241.77 380.881C241.309 381.06 240.782 381.149 240.189 381.149ZM247.305 381.154C246.821 381.154 246.385 381.068 245.997 380.896C245.613 380.72 245.308 380.461 245.082 380.12C244.86 379.779 244.749 379.358 244.749 378.857C244.749 378.426 244.829 378.07 244.988 377.788C245.147 377.507 245.364 377.281 245.639 377.112C245.914 376.943 246.224 376.816 246.569 376.729C246.917 376.64 247.277 376.575 247.648 376.536C248.095 376.489 248.458 376.448 248.737 376.411C249.015 376.371 249.217 376.312 249.343 376.232C249.472 376.149 249.537 376.022 249.537 375.849V375.82C249.537 375.445 249.426 375.155 249.204 374.95C248.982 374.744 248.662 374.641 248.244 374.641C247.804 374.641 247.454 374.737 247.195 374.93C246.94 375.122 246.768 375.349 246.678 375.611L244.998 375.372C245.131 374.908 245.349 374.52 245.654 374.209C245.959 373.894 246.332 373.659 246.773 373.503C247.214 373.344 247.701 373.264 248.234 373.264C248.602 373.264 248.969 373.307 249.333 373.393C249.698 373.48 250.031 373.622 250.332 373.821C250.634 374.017 250.876 374.283 251.058 374.621C251.244 374.96 251.337 375.382 251.337 375.889V381H249.607V379.951H249.547C249.438 380.163 249.283 380.362 249.085 380.548C248.889 380.73 248.642 380.877 248.344 380.99C248.049 381.099 247.703 381.154 247.305 381.154ZM247.772 379.832C248.133 379.832 248.447 379.76 248.712 379.618C248.977 379.472 249.181 379.28 249.323 379.041C249.469 378.803 249.542 378.542 249.542 378.261V377.361C249.486 377.407 249.39 377.45 249.254 377.49C249.121 377.53 248.972 377.565 248.806 377.594C248.64 377.624 248.476 377.651 248.314 377.674C248.152 377.697 248.011 377.717 247.891 377.734C247.623 377.77 247.383 377.83 247.171 377.913C246.958 377.996 246.791 378.112 246.668 378.261C246.546 378.406 246.484 378.595 246.484 378.827C246.484 379.159 246.605 379.409 246.847 379.578C247.089 379.747 247.398 379.832 247.772 379.832ZM256.96 373.364V374.756H252.57V373.364H256.96ZM253.653 371.534H255.453V378.703C255.453 378.945 255.49 379.131 255.563 379.26C255.639 379.386 255.738 379.472 255.861 379.518C255.984 379.565 256.119 379.588 256.269 379.588C256.381 379.588 256.484 379.58 256.577 379.563C256.673 379.547 256.746 379.532 256.796 379.518L257.099 380.925C257.003 380.959 256.865 380.995 256.686 381.035C256.511 381.075 256.295 381.098 256.04 381.104C255.589 381.118 255.183 381.05 254.822 380.901C254.461 380.748 254.174 380.513 253.962 380.195C253.753 379.876 253.65 379.479 253.653 379.001V371.534ZM261.763 381.149C260.998 381.149 260.337 380.99 259.78 380.672C259.226 380.35 258.8 379.896 258.502 379.31C258.204 378.72 258.055 378.025 258.055 377.227C258.055 376.441 258.204 375.752 258.502 375.158C258.804 374.562 259.225 374.098 259.765 373.766C260.305 373.432 260.94 373.264 261.669 373.264C262.14 373.264 262.584 373.34 263.001 373.493C263.422 373.642 263.793 373.874 264.115 374.189C264.44 374.504 264.695 374.905 264.881 375.392C265.066 375.876 265.159 376.453 265.159 377.122V377.674H258.9V376.461H263.434C263.431 376.116 263.356 375.81 263.21 375.541C263.064 375.269 262.86 375.056 262.599 374.9C262.34 374.744 262.039 374.666 261.694 374.666C261.326 374.666 261.003 374.756 260.724 374.935C260.446 375.11 260.229 375.342 260.073 375.631C259.921 375.916 259.843 376.229 259.839 376.57V377.629C259.839 378.073 259.921 378.455 260.083 378.773C260.245 379.088 260.472 379.33 260.764 379.499C261.056 379.664 261.397 379.747 261.788 379.747C262.05 379.747 262.287 379.711 262.499 379.638C262.711 379.562 262.895 379.451 263.051 379.305C263.207 379.159 263.324 378.978 263.404 378.763L265.084 378.952C264.978 379.396 264.776 379.784 264.478 380.115C264.183 380.443 263.805 380.698 263.344 380.881C262.884 381.06 262.357 381.149 261.763 381.149Z" fill="white"/>
<path d="M566.479 298V287.818H570.297C571.079 287.818 571.735 287.964 572.266 288.256C572.799 288.547 573.202 288.948 573.474 289.459C573.749 289.966 573.887 290.543 573.887 291.189C573.887 291.842 573.749 292.422 573.474 292.929C573.199 293.436 572.793 293.835 572.256 294.127C571.719 294.415 571.058 294.56 570.272 294.56H567.742V293.043H570.024C570.481 293.043 570.856 292.964 571.147 292.805C571.439 292.646 571.654 292.427 571.794 292.148C571.936 291.87 572.007 291.55 572.007 291.189C572.007 290.828 571.936 290.509 571.794 290.234C571.654 289.959 571.437 289.746 571.142 289.593C570.851 289.437 570.474 289.359 570.014 289.359H568.323V298H566.479ZM577.47 298.154C576.986 298.154 576.55 298.068 576.162 297.896C575.778 297.72 575.473 297.461 575.248 297.12C575.025 296.779 574.914 296.358 574.914 295.857C574.914 295.426 574.994 295.07 575.153 294.788C575.312 294.507 575.529 294.281 575.804 294.112C576.079 293.943 576.389 293.816 576.734 293.729C577.082 293.64 577.442 293.575 577.813 293.536C578.26 293.489 578.623 293.448 578.902 293.411C579.18 293.371 579.382 293.312 579.508 293.232C579.637 293.149 579.702 293.022 579.702 292.849V292.82C579.702 292.445 579.591 292.155 579.369 291.95C579.147 291.744 578.827 291.641 578.409 291.641C577.969 291.641 577.619 291.737 577.36 291.93C577.105 292.122 576.933 292.349 576.843 292.611L575.163 292.372C575.296 291.908 575.514 291.52 575.819 291.209C576.124 290.894 576.497 290.659 576.938 290.503C577.379 290.344 577.866 290.264 578.4 290.264C578.767 290.264 579.134 290.307 579.498 290.393C579.863 290.48 580.196 290.622 580.498 290.821C580.799 291.017 581.041 291.283 581.223 291.621C581.409 291.96 581.502 292.382 581.502 292.889V298H579.772V296.951H579.712C579.603 297.163 579.449 297.362 579.25 297.548C579.054 297.73 578.807 297.877 578.509 297.99C578.214 298.099 577.868 298.154 577.47 298.154ZM577.937 296.832C578.298 296.832 578.612 296.76 578.877 296.618C579.142 296.472 579.346 296.28 579.488 296.041C579.634 295.803 579.707 295.542 579.707 295.261V294.361C579.651 294.407 579.555 294.45 579.419 294.49C579.286 294.53 579.137 294.565 578.971 294.594C578.806 294.624 578.641 294.651 578.479 294.674C578.317 294.697 578.176 294.717 578.056 294.734C577.788 294.77 577.548 294.83 577.336 294.913C577.123 294.996 576.956 295.112 576.833 295.261C576.711 295.406 576.65 295.595 576.65 295.827C576.65 296.159 576.77 296.409 577.012 296.578C577.254 296.747 577.563 296.832 577.937 296.832ZM586.642 298.149C585.88 298.149 585.225 297.982 584.679 297.647C584.135 297.312 583.716 296.85 583.421 296.26C583.129 295.667 582.983 294.984 582.983 294.212C582.983 293.436 583.132 292.752 583.431 292.158C583.729 291.562 584.15 291.098 584.694 290.766C585.24 290.432 585.887 290.264 586.632 290.264C587.252 290.264 587.801 290.379 588.278 290.607C588.759 290.833 589.141 291.152 589.426 291.567C589.712 291.978 589.874 292.458 589.914 293.009H588.194C588.124 292.641 587.958 292.334 587.696 292.089C587.438 291.84 587.092 291.716 586.657 291.716C586.289 291.716 585.966 291.815 585.688 292.014C585.409 292.21 585.192 292.491 585.037 292.859C584.884 293.227 584.808 293.668 584.808 294.182C584.808 294.702 584.884 295.15 585.037 295.524C585.189 295.895 585.403 296.182 585.678 296.384C585.956 296.583 586.283 296.683 586.657 296.683C586.922 296.683 587.159 296.633 587.368 296.533C587.58 296.431 587.758 296.283 587.9 296.091C588.043 295.899 588.141 295.665 588.194 295.39H589.914C589.871 295.93 589.712 296.409 589.436 296.827C589.161 297.241 588.787 297.566 588.313 297.801C587.839 298.033 587.282 298.149 586.642 298.149ZM593.032 295.604L593.027 293.431H593.316L596.06 290.364H598.163L594.787 294.122H594.414L593.032 295.604ZM591.392 298V287.818H593.191V298H591.392ZM596.184 298L593.698 294.525L594.911 293.257L598.337 298H596.184ZM601.56 298.154C601.076 298.154 600.64 298.068 600.252 297.896C599.868 297.72 599.563 297.461 599.337 297.12C599.115 296.779 599.004 296.358 599.004 295.857C599.004 295.426 599.084 295.07 599.243 294.788C599.402 294.507 599.619 294.281 599.894 294.112C600.169 293.943 600.479 293.816 600.824 293.729C601.172 293.64 601.531 293.575 601.903 293.536C602.35 293.489 602.713 293.448 602.991 293.411C603.27 293.371 603.472 293.312 603.598 293.232C603.727 293.149 603.792 293.022 603.792 292.849V292.82C603.792 292.445 603.681 292.155 603.459 291.95C603.237 291.744 602.917 291.641 602.499 291.641C602.058 291.641 601.709 291.737 601.45 291.93C601.195 292.122 601.023 292.349 600.933 292.611L599.253 292.372C599.385 291.908 599.604 291.52 599.909 291.209C600.214 290.894 600.587 290.659 601.028 290.503C601.469 290.344 601.956 290.264 602.489 290.264C602.857 290.264 603.223 290.307 603.588 290.393C603.953 290.48 604.286 290.622 604.587 290.821C604.889 291.017 605.131 291.283 605.313 291.621C605.499 291.96 605.592 292.382 605.592 292.889V298H603.862V296.951H603.802C603.692 297.163 603.538 297.362 603.339 297.548C603.144 297.73 602.897 297.877 602.599 297.99C602.304 298.099 601.957 298.154 601.56 298.154ZM602.027 296.832C602.388 296.832 602.701 296.76 602.967 296.618C603.232 296.472 603.436 296.28 603.578 296.041C603.724 295.803 603.797 295.542 603.797 295.261V294.361C603.741 294.407 603.644 294.45 603.509 294.49C603.376 294.53 603.227 294.565 603.061 294.594C602.895 294.624 602.731 294.651 602.569 294.674C602.406 294.697 602.266 294.717 602.146 294.734C601.878 294.77 601.638 294.83 601.425 294.913C601.213 294.996 601.046 295.112 600.923 295.261C600.801 295.406 600.739 295.595 600.739 295.827C600.739 296.159 600.86 296.409 601.102 296.578C601.344 296.747 601.652 296.832 602.027 296.832ZM610.722 301.023C610.076 301.023 609.521 300.935 609.057 300.759C608.593 300.587 608.22 300.355 607.938 300.063C607.656 299.772 607.461 299.448 607.352 299.094L608.972 298.701C609.045 298.85 609.151 298.998 609.29 299.143C609.43 299.293 609.617 299.415 609.852 299.511C610.091 299.611 610.391 299.661 610.752 299.661C611.263 299.661 611.685 299.536 612.02 299.288C612.355 299.042 612.522 298.638 612.522 298.075V296.628H612.433C612.34 296.813 612.204 297.004 612.025 297.2C611.849 297.395 611.616 297.559 611.324 297.692C611.036 297.824 610.673 297.891 610.235 297.891C609.648 297.891 609.116 297.753 608.639 297.478C608.165 297.2 607.787 296.785 607.506 296.235C607.227 295.682 607.088 294.989 607.088 294.157C607.088 293.318 607.227 292.611 607.506 292.034C607.787 291.454 608.167 291.015 608.644 290.717C609.121 290.415 609.653 290.264 610.24 290.264C610.688 290.264 611.055 290.34 611.344 290.493C611.635 290.642 611.867 290.823 612.04 291.035C612.212 291.244 612.343 291.441 612.433 291.626H612.532V290.364H614.307V298.124C614.307 298.777 614.151 299.317 613.839 299.745C613.528 300.173 613.102 300.492 612.562 300.705C612.022 300.917 611.408 301.023 610.722 301.023ZM610.737 296.479C611.118 296.479 611.443 296.386 611.712 296.2C611.98 296.015 612.184 295.748 612.323 295.4C612.462 295.052 612.532 294.634 612.532 294.147C612.532 293.666 612.462 293.246 612.323 292.884C612.187 292.523 611.985 292.243 611.717 292.044C611.451 291.842 611.125 291.741 610.737 291.741C610.336 291.741 610.001 291.845 609.733 292.054C609.464 292.263 609.262 292.549 609.126 292.914C608.991 293.275 608.923 293.686 608.923 294.147C608.923 294.614 608.991 295.024 609.126 295.375C609.266 295.723 609.469 295.995 609.738 296.19C610.01 296.383 610.343 296.479 610.737 296.479ZM619.532 298.149C618.766 298.149 618.105 297.99 617.548 297.672C616.995 297.35 616.569 296.896 616.271 296.31C615.972 295.72 615.823 295.025 615.823 294.227C615.823 293.441 615.972 292.752 616.271 292.158C616.572 291.562 616.993 291.098 617.533 290.766C618.074 290.432 618.708 290.264 619.438 290.264C619.908 290.264 620.352 290.34 620.77 290.493C621.191 290.642 621.562 290.874 621.884 291.189C622.208 291.504 622.464 291.905 622.649 292.392C622.835 292.876 622.928 293.453 622.928 294.122V294.674H616.668V293.461H621.202C621.199 293.116 621.125 292.81 620.979 292.541C620.833 292.269 620.629 292.056 620.367 291.9C620.109 291.744 619.807 291.666 619.462 291.666C619.094 291.666 618.771 291.756 618.493 291.935C618.214 292.11 617.997 292.342 617.842 292.631C617.689 292.916 617.611 293.229 617.608 293.57V294.629C617.608 295.073 617.689 295.455 617.852 295.773C618.014 296.088 618.241 296.33 618.533 296.499C618.824 296.664 619.166 296.747 619.557 296.747C619.819 296.747 620.056 296.711 620.268 296.638C620.48 296.562 620.664 296.451 620.82 296.305C620.975 296.159 621.093 295.978 621.173 295.763L622.853 295.952C622.747 296.396 622.545 296.784 622.246 297.115C621.951 297.443 621.574 297.698 621.113 297.881C620.652 298.06 620.125 298.149 619.532 298.149Z" fill="white"/>
<path d="M694.776 368.617C694.73 368.183 694.534 367.845 694.189 367.603C693.848 367.361 693.404 367.24 692.857 367.24C692.472 367.24 692.143 367.298 691.868 367.414C691.592 367.53 691.382 367.687 691.236 367.886C691.09 368.085 691.016 368.312 691.012 368.567C691.012 368.78 691.06 368.964 691.157 369.119C691.256 369.275 691.39 369.408 691.559 369.517C691.728 369.623 691.916 369.713 692.121 369.786C692.327 369.858 692.534 369.92 692.743 369.969L693.697 370.208C694.082 370.298 694.451 370.419 694.806 370.571C695.164 370.723 695.484 370.916 695.765 371.148C696.05 371.38 696.276 371.66 696.441 371.988C696.607 372.316 696.69 372.701 696.69 373.141C696.69 373.738 696.538 374.263 696.233 374.717C695.928 375.168 695.487 375.521 694.91 375.776C694.337 376.028 693.642 376.154 692.827 376.154C692.035 376.154 691.347 376.031 690.764 375.786C690.184 375.541 689.73 375.183 689.402 374.712C689.077 374.242 688.901 373.668 688.875 372.992H690.689C690.716 373.347 690.825 373.642 691.017 373.877C691.21 374.112 691.46 374.288 691.768 374.404C692.08 374.52 692.428 374.578 692.812 374.578C693.213 374.578 693.565 374.518 693.866 374.399C694.171 374.277 694.41 374.107 694.582 373.892C694.754 373.673 694.842 373.418 694.846 373.126C694.842 372.861 694.764 372.643 694.612 372.47C694.459 372.295 694.246 372.149 693.971 372.033C693.699 371.913 693.381 371.807 693.016 371.714L691.858 371.416C691.019 371.201 690.356 370.874 689.869 370.437C689.385 369.996 689.143 369.411 689.143 368.682C689.143 368.082 689.306 367.557 689.63 367.106C689.958 366.655 690.404 366.305 690.968 366.057C691.531 365.805 692.169 365.679 692.882 365.679C693.604 365.679 694.237 365.805 694.781 366.057C695.328 366.305 695.757 366.652 696.069 367.096C696.38 367.537 696.541 368.044 696.551 368.617H694.776ZM701.635 376.149C700.87 376.149 700.209 375.99 699.652 375.672C699.098 375.35 698.672 374.896 698.374 374.31C698.076 373.72 697.927 373.025 697.927 372.227C697.927 371.441 698.076 370.752 698.374 370.158C698.676 369.562 699.097 369.098 699.637 368.766C700.177 368.432 700.812 368.264 701.541 368.264C702.012 368.264 702.456 368.34 702.873 368.493C703.294 368.642 703.666 368.874 703.987 369.189C704.312 369.504 704.567 369.905 704.753 370.392C704.938 370.876 705.031 371.453 705.031 372.122V372.674H698.772V371.461H703.306C703.303 371.116 703.228 370.81 703.082 370.541C702.936 370.269 702.733 370.056 702.471 369.9C702.212 369.744 701.911 369.666 701.566 369.666C701.198 369.666 700.875 369.756 700.596 369.935C700.318 370.11 700.101 370.342 699.945 370.631C699.793 370.916 699.715 371.229 699.711 371.57V372.629C699.711 373.073 699.793 373.455 699.955 373.773C700.117 374.088 700.345 374.33 700.636 374.499C700.928 374.664 701.269 374.747 701.66 374.747C701.922 374.747 702.159 374.711 702.371 374.638C702.583 374.562 702.767 374.451 702.923 374.305C703.079 374.159 703.197 373.978 703.276 373.763L704.956 373.952C704.85 374.396 704.648 374.784 704.35 375.115C704.055 375.443 703.677 375.698 703.216 375.881C702.756 376.06 702.229 376.149 701.635 376.149ZM709.885 376.149C709.122 376.149 708.468 375.982 707.921 375.647C707.377 375.312 706.958 374.85 706.663 374.26C706.371 373.667 706.225 372.984 706.225 372.212C706.225 371.436 706.375 370.752 706.673 370.158C706.971 369.562 707.392 369.098 707.936 368.766C708.483 368.432 709.129 368.264 709.875 368.264C710.494 368.264 711.043 368.379 711.52 368.607C712.001 368.833 712.384 369.152 712.669 369.567C712.954 369.978 713.116 370.458 713.156 371.009H711.436C711.366 370.641 711.2 370.334 710.939 370.089C710.68 369.84 710.334 369.716 709.9 369.716C709.532 369.716 709.208 369.815 708.93 370.014C708.652 370.21 708.435 370.491 708.279 370.859C708.126 371.227 708.05 371.668 708.05 372.182C708.05 372.702 708.126 373.15 708.279 373.524C708.431 373.895 708.645 374.182 708.92 374.384C709.199 374.583 709.525 374.683 709.9 374.683C710.165 374.683 710.402 374.633 710.61 374.533C710.823 374.431 711 374.283 711.142 374.091C711.285 373.899 711.383 373.665 711.436 373.39H713.156C713.113 373.93 712.954 374.409 712.679 374.827C712.404 375.241 712.029 375.566 711.555 375.801C711.081 376.033 710.524 376.149 709.885 376.149ZM719.501 372.788V368.364H721.301V376H719.556V374.643H719.476C719.304 375.07 719.02 375.42 718.626 375.692C718.235 375.964 717.753 376.099 717.179 376.099C716.679 376.099 716.236 375.988 715.852 375.766C715.471 375.541 715.172 375.214 714.957 374.787C714.741 374.356 714.634 373.836 714.634 373.226V368.364H716.433V372.947C716.433 373.431 716.566 373.816 716.831 374.101C717.096 374.386 717.444 374.528 717.875 374.528C718.14 374.528 718.397 374.464 718.646 374.335C718.894 374.205 719.098 374.013 719.257 373.758C719.42 373.499 719.501 373.176 719.501 372.788ZM723.151 376V368.364H724.896V369.636H724.976C725.115 369.196 725.354 368.856 725.692 368.617C726.033 368.375 726.423 368.254 726.86 368.254C726.96 368.254 727.071 368.259 727.193 368.269C727.319 368.276 727.424 368.287 727.506 368.304V369.96C727.43 369.933 727.309 369.91 727.143 369.89C726.981 369.867 726.824 369.855 726.671 369.855C726.343 369.855 726.048 369.926 725.786 370.069C725.528 370.208 725.324 370.402 725.175 370.651C725.026 370.899 724.951 371.186 724.951 371.511V376H723.151ZM731.768 376.149C731.003 376.149 730.341 375.99 729.785 375.672C729.231 375.35 728.805 374.896 728.507 374.31C728.209 373.72 728.059 373.025 728.059 372.227C728.059 371.441 728.209 370.752 728.507 370.158C728.809 369.562 729.229 369.098 729.77 368.766C730.31 368.432 730.945 368.264 731.674 368.264C732.144 368.264 732.589 368.34 733.006 368.493C733.427 368.642 733.798 368.874 734.12 369.189C734.445 369.504 734.7 369.905 734.885 370.392C735.071 370.876 735.164 371.453 735.164 372.122V372.674H728.905V371.461H733.439C733.435 371.116 733.361 370.81 733.215 370.541C733.069 370.269 732.865 370.056 732.604 369.9C732.345 369.744 732.043 369.666 731.699 369.666C731.331 369.666 731.008 369.756 730.729 369.935C730.451 370.11 730.234 370.342 730.078 370.631C729.925 370.916 729.848 371.229 729.844 371.57V372.629C729.844 373.073 729.925 373.455 730.088 373.773C730.25 374.088 730.477 374.33 730.769 374.499C731.061 374.664 731.402 374.747 731.793 374.747C732.055 374.747 732.292 374.711 732.504 374.638C732.716 374.562 732.9 374.451 733.056 374.305C733.212 374.159 733.329 373.978 733.409 373.763L735.089 373.952C734.983 374.396 734.781 374.784 734.483 375.115C734.188 375.443 733.81 375.698 733.349 375.881C732.889 376.06 732.362 376.149 731.768 376.149Z" fill="white"/>
<path d="M863.371 308V297.818H867.19C867.972 297.818 868.628 297.954 869.158 298.226C869.692 298.498 870.095 298.879 870.366 299.369C870.642 299.857 870.779 300.425 870.779 301.075C870.779 301.728 870.64 302.294 870.362 302.775C870.086 303.252 869.68 303.622 869.143 303.884C868.607 304.142 867.947 304.271 867.165 304.271H864.445V302.74H866.916C867.374 302.74 867.748 302.677 868.04 302.551C868.331 302.422 868.547 302.235 868.686 301.989C868.829 301.741 868.9 301.436 868.9 301.075C868.9 300.713 868.829 300.405 868.686 300.15C868.544 299.891 868.326 299.696 868.035 299.563C867.743 299.427 867.367 299.359 866.906 299.359H865.216V308H863.371ZM868.631 303.386L871.152 308H869.094L866.618 303.386H868.631ZM875.669 308.149C874.903 308.149 874.242 307.99 873.685 307.672C873.132 307.35 872.706 306.896 872.407 306.31C872.109 305.72 871.96 305.025 871.96 304.227C871.96 303.441 872.109 302.752 872.407 302.158C872.709 301.562 873.13 301.098 873.67 300.766C874.21 300.432 874.845 300.264 875.574 300.264C876.045 300.264 876.489 300.34 876.907 300.493C877.328 300.642 877.699 300.874 878.02 301.189C878.345 301.504 878.6 301.905 878.786 302.392C878.971 302.876 879.064 303.453 879.064 304.122V304.674H872.805V303.461H877.339C877.336 303.116 877.261 302.81 877.115 302.541C876.97 302.269 876.766 302.056 876.504 301.9C876.245 301.744 875.944 301.666 875.599 301.666C875.231 301.666 874.908 301.756 874.63 301.935C874.351 302.11 874.134 302.342 873.978 302.631C873.826 302.916 873.748 303.229 873.745 303.57V304.629C873.745 305.073 873.826 305.455 873.988 305.773C874.151 306.088 874.378 306.33 874.669 306.499C874.961 306.664 875.302 306.747 875.694 306.747C875.955 306.747 876.192 306.711 876.404 306.638C876.617 306.562 876.801 306.451 876.956 306.305C877.112 306.159 877.23 305.978 877.309 305.763L878.99 305.952C878.884 306.396 878.681 306.784 878.383 307.115C878.088 307.443 877.71 307.698 877.25 307.881C876.789 308.06 876.262 308.149 875.669 308.149ZM882.387 297.818V308H880.587V297.818H882.387ZM887.618 308.149C886.852 308.149 886.191 307.99 885.634 307.672C885.081 307.35 884.655 306.896 884.357 306.31C884.058 305.72 883.909 305.025 883.909 304.227C883.909 303.441 884.058 302.752 884.357 302.158C884.658 301.562 885.079 301.098 885.619 300.766C886.16 300.432 886.794 300.264 887.523 300.264C887.994 300.264 888.438 300.34 888.856 300.493C889.277 300.642 889.648 300.874 889.969 301.189C890.294 301.504 890.549 301.905 890.735 302.392C890.921 302.876 891.013 303.453 891.013 304.122V304.674H884.754V303.461H889.288C889.285 303.116 889.21 302.81 889.065 302.541C888.919 302.269 888.715 302.056 888.453 301.9C888.195 301.744 887.893 301.666 887.548 301.666C887.18 301.666 886.857 301.756 886.579 301.935C886.3 302.11 886.083 302.342 885.928 302.631C885.775 302.916 885.697 303.229 885.694 303.57V304.629C885.694 305.073 885.775 305.455 885.938 305.773C886.1 306.088 886.327 306.33 886.619 306.499C886.91 306.664 887.252 306.747 887.643 306.747C887.905 306.747 888.142 306.711 888.354 306.638C888.566 306.562 888.75 306.451 888.906 306.305C889.061 306.159 889.179 305.978 889.259 305.763L890.939 305.952C890.833 306.396 890.631 306.784 890.332 307.115C890.037 307.443 889.66 307.698 889.199 307.881C888.738 308.06 888.211 308.149 887.618 308.149ZM894.733 308.154C894.25 308.154 893.814 308.068 893.426 307.896C893.041 307.72 892.737 307.461 892.511 307.12C892.289 306.779 892.178 306.358 892.178 305.857C892.178 305.426 892.258 305.07 892.417 304.788C892.576 304.507 892.793 304.281 893.068 304.112C893.343 303.943 893.653 303.816 893.998 303.729C894.346 303.64 894.705 303.575 895.077 303.536C895.524 303.489 895.887 303.448 896.165 303.411C896.444 303.371 896.646 303.312 896.772 303.232C896.901 303.149 896.966 303.022 896.966 302.849V302.82C896.966 302.445 896.855 302.155 896.633 301.95C896.411 301.744 896.091 301.641 895.673 301.641C895.232 301.641 894.883 301.737 894.624 301.93C894.369 302.122 894.197 302.349 894.107 302.611L892.427 302.372C892.559 301.908 892.778 301.52 893.083 301.209C893.388 300.894 893.761 300.659 894.202 300.503C894.642 300.344 895.13 300.264 895.663 300.264C896.031 300.264 896.397 300.307 896.762 300.393C897.126 300.48 897.46 300.622 897.761 300.821C898.063 301.017 898.305 301.283 898.487 301.621C898.673 301.96 898.765 302.382 898.765 302.889V308H897.035V306.951H896.976C896.866 307.163 896.712 307.362 896.513 307.548C896.318 307.73 896.071 307.877 895.773 307.99C895.478 308.099 895.131 308.154 894.733 308.154ZM895.201 306.832C895.562 306.832 895.875 306.76 896.14 306.618C896.406 306.472 896.609 306.28 896.752 306.041C896.898 305.803 896.971 305.542 896.971 305.261V304.361C896.914 304.407 896.818 304.45 896.682 304.49C896.55 304.53 896.401 304.565 896.235 304.594C896.069 304.624 895.905 304.651 895.743 304.674C895.58 304.697 895.439 304.717 895.32 304.734C895.052 304.77 894.811 304.83 894.599 304.913C894.387 304.996 894.22 305.112 894.097 305.261C893.974 305.406 893.913 305.595 893.913 305.827C893.913 306.159 894.034 306.409 894.276 306.578C894.518 306.747 894.826 306.832 895.201 306.832ZM906.611 302.382L904.97 302.561C904.924 302.395 904.842 302.24 904.726 302.094C904.614 301.948 904.461 301.83 904.269 301.741C904.077 301.651 903.841 301.607 903.563 301.607C903.189 301.607 902.874 301.688 902.618 301.85C902.367 302.013 902.242 302.223 902.246 302.482C902.242 302.704 902.323 302.884 902.489 303.023C902.658 303.163 902.937 303.277 903.324 303.366L904.627 303.645C905.349 303.801 905.886 304.048 906.238 304.386C906.592 304.724 906.771 305.166 906.775 305.713C906.771 306.194 906.631 306.618 906.352 306.986C906.077 307.35 905.694 307.635 905.204 307.841C904.713 308.046 904.15 308.149 903.513 308.149C902.579 308.149 901.826 307.954 901.256 307.562C900.686 307.168 900.346 306.62 900.237 305.917L901.992 305.748C902.072 306.093 902.241 306.353 902.499 306.528C902.758 306.704 903.094 306.792 903.508 306.792C903.936 306.792 904.279 306.704 904.537 306.528C904.799 306.353 904.93 306.136 904.93 305.877C904.93 305.658 904.846 305.478 904.677 305.335C904.511 305.193 904.252 305.083 903.901 305.007L902.599 304.734C901.866 304.581 901.324 304.324 900.973 303.963C900.622 303.598 900.448 303.138 900.451 302.581C900.448 302.11 900.575 301.703 900.834 301.358C901.095 301.01 901.458 300.741 901.922 300.553C902.39 300.36 902.928 300.264 903.538 300.264C904.433 300.264 905.137 300.455 905.651 300.836C906.168 301.217 906.488 301.732 906.611 302.382ZM911.639 308.149C910.874 308.149 910.213 307.99 909.656 307.672C909.102 307.35 908.676 306.896 908.378 306.31C908.08 305.72 907.931 305.025 907.931 304.227C907.931 303.441 908.08 302.752 908.378 302.158C908.68 301.562 909.101 301.098 909.641 300.766C910.181 300.432 910.816 300.264 911.545 300.264C912.016 300.264 912.46 300.34 912.877 300.493C913.298 300.642 913.669 300.874 913.991 301.189C914.316 301.504 914.571 301.905 914.757 302.392C914.942 302.876 915.035 303.453 915.035 304.122V304.674H908.776V303.461H913.31C913.307 303.116 913.232 302.81 913.086 302.541C912.94 302.269 912.736 302.056 912.475 301.9C912.216 301.744 911.914 301.666 911.57 301.666C911.202 301.666 910.879 301.756 910.6 301.935C910.322 302.11 910.105 302.342 909.949 302.631C909.797 302.916 909.719 303.229 909.715 303.57V304.629C909.715 305.073 909.797 305.455 909.959 305.773C910.121 306.088 910.348 306.33 910.64 306.499C910.932 306.664 911.273 306.747 911.664 306.747C911.926 306.747 912.163 306.711 912.375 306.638C912.587 306.562 912.771 306.451 912.927 306.305C913.083 306.159 913.2 305.978 913.28 305.763L914.96 305.952C914.854 306.396 914.652 306.784 914.354 307.115C914.059 307.443 913.681 307.698 913.22 307.881C912.76 308.06 912.233 308.149 911.639 308.149Z" fill="white"/>
<path d="M851.128 96.2536H849.268C849.215 95.9486 849.117 95.6785 848.975 95.4432C848.832 95.2045 848.655 95.0024 848.443 94.8366C848.231 94.6709 847.989 94.5466 847.717 94.4638C847.449 94.3776 847.159 94.3345 846.847 94.3345C846.294 94.3345 845.803 94.4737 845.376 94.7521C844.948 95.0272 844.613 95.4316 844.371 95.9652C844.129 96.4955 844.008 97.1435 844.008 97.9091C844.008 98.688 844.129 99.3442 844.371 99.8778C844.617 100.408 844.951 100.809 845.376 101.081C845.803 101.349 846.292 101.484 846.842 101.484C847.147 101.484 847.432 101.444 847.697 101.364C847.966 101.281 848.206 101.161 848.418 101.001C848.634 100.842 848.814 100.647 848.96 100.415C849.109 100.183 849.212 99.9176 849.268 99.6193L851.128 99.6293C851.058 100.113 850.907 100.567 850.675 100.991C850.447 101.416 850.147 101.79 849.775 102.115C849.404 102.437 848.97 102.688 848.473 102.871C847.976 103.05 847.424 103.139 846.817 103.139C845.922 103.139 845.124 102.932 844.421 102.518C843.718 102.103 843.165 101.505 842.76 100.723C842.356 99.9408 842.154 99.0028 842.154 97.9091C842.154 96.812 842.358 95.8741 842.765 95.0952C843.173 94.313 843.728 93.7147 844.431 93.3004C845.134 92.8861 845.929 92.679 846.817 92.679C847.384 92.679 847.911 92.7585 848.398 92.9176C848.885 93.0767 849.32 93.3104 849.701 93.6186C850.082 93.9235 850.395 94.2981 850.64 94.7422C850.889 95.183 851.051 95.6868 851.128 96.2536ZM856.068 103.149C855.322 103.149 854.676 102.985 854.129 102.657C853.582 102.329 853.158 101.87 852.857 101.28C852.558 100.69 852.409 100 852.409 99.2116C852.409 98.4228 852.558 97.7318 852.857 97.1385C853.158 96.5452 853.582 96.0845 854.129 95.7564C854.676 95.4283 855.322 95.2642 856.068 95.2642C856.814 95.2642 857.46 95.4283 858.007 95.7564C858.554 96.0845 858.977 96.5452 859.275 97.1385C859.576 97.7318 859.727 98.4228 859.727 99.2116C859.727 100 859.576 100.69 859.275 101.28C858.977 101.87 858.554 102.329 858.007 102.657C857.46 102.985 856.814 103.149 856.068 103.149ZM856.078 101.707C856.482 101.707 856.821 101.596 857.092 101.374C857.364 101.149 857.566 100.847 857.699 100.469C857.835 100.092 857.903 99.6707 857.903 99.2067C857.903 98.7393 857.835 98.3168 857.699 97.9389C857.566 97.5578 857.364 97.2545 857.092 97.0291C856.821 96.8037 856.482 96.6911 856.078 96.6911C855.664 96.6911 855.319 96.8037 855.044 97.0291C854.772 97.2545 854.568 97.5578 854.433 97.9389C854.3 98.3168 854.234 98.7393 854.234 99.2067C854.234 99.6707 854.3 100.092 854.433 100.469C854.568 100.847 854.772 101.149 855.044 101.374C855.319 101.596 855.664 101.707 856.078 101.707ZM863.055 98.5256V103H861.255V95.3636H862.975V96.6612H863.064C863.24 96.2337 863.52 95.8939 863.905 95.642C864.292 95.3902 864.771 95.2642 865.341 95.2642C865.868 95.2642 866.327 95.3769 866.719 95.6023C867.113 95.8277 867.418 96.1541 867.633 96.5817C867.852 97.0092 867.96 97.5279 867.956 98.1378V103H866.157V98.4162C866.157 97.9058 866.024 97.5064 865.759 97.218C865.497 96.9297 865.134 96.7855 864.67 96.7855C864.355 96.7855 864.075 96.8551 863.83 96.9943C863.588 97.1302 863.398 97.3274 863.258 97.5859C863.122 97.8445 863.055 98.1577 863.055 98.5256ZM873.654 95.3636V96.7557H869.14V95.3636H873.654ZM870.268 103V94.6428C870.268 94.129 870.374 93.7015 870.586 93.3601C870.802 93.0187 871.09 92.7635 871.452 92.5945C871.813 92.4254 872.214 92.3409 872.655 92.3409C872.966 92.3409 873.243 92.3658 873.485 92.4155C873.727 92.4652 873.906 92.5099 874.022 92.5497L873.664 93.9418C873.588 93.9186 873.492 93.8954 873.376 93.8722C873.26 93.8456 873.13 93.8324 872.988 93.8324C872.653 93.8324 872.416 93.9136 872.277 94.076C872.141 94.2351 872.073 94.4638 872.073 94.7621V103H870.268ZM875.063 103V95.3636H876.863V103H875.063ZM875.968 94.2798C875.683 94.2798 875.438 94.1854 875.232 93.9964C875.027 93.8042 874.924 93.5739 874.924 93.3054C874.924 93.0336 875.027 92.8033 875.232 92.6143C875.438 92.4221 875.683 92.326 875.968 92.326C876.257 92.326 876.502 92.4221 876.704 92.6143C876.91 92.8033 877.012 93.0336 877.012 93.3054C877.012 93.5739 876.91 93.8042 876.704 93.9964C876.502 94.1854 876.257 94.2798 875.968 94.2798ZM882.035 106.023C881.388 106.023 880.833 105.935 880.369 105.759C879.905 105.587 879.532 105.355 879.251 105.063C878.969 104.772 878.773 104.448 878.664 104.094L880.285 103.701C880.358 103.85 880.464 103.998 880.603 104.143C880.742 104.293 880.929 104.415 881.165 104.511C881.403 104.611 881.703 104.661 882.065 104.661C882.575 104.661 882.998 104.536 883.332 104.288C883.667 104.042 883.835 103.638 883.835 103.075V101.628H883.745C883.652 101.813 883.516 102.004 883.337 102.2C883.162 102.395 882.928 102.559 882.636 102.692C882.348 102.824 881.985 102.891 881.548 102.891C880.961 102.891 880.429 102.753 879.952 102.478C879.478 102.2 879.1 101.785 878.818 101.235C878.54 100.682 878.401 99.9889 878.401 99.157C878.401 98.3184 878.54 97.6108 878.818 97.0341C879.1 96.4541 879.479 96.0149 879.957 95.7166C880.434 95.415 880.966 95.2642 881.553 95.2642C882 95.2642 882.368 95.3404 882.656 95.4929C882.948 95.642 883.18 95.8227 883.352 96.0348C883.525 96.2436 883.656 96.4408 883.745 96.6264H883.844V95.3636H885.619V103.124C885.619 103.777 885.464 104.317 885.152 104.745C884.84 105.173 884.415 105.492 883.874 105.705C883.334 105.917 882.721 106.023 882.035 106.023ZM882.05 101.479C882.431 101.479 882.756 101.386 883.024 101.2C883.293 101.015 883.496 100.748 883.636 100.4C883.775 100.052 883.844 99.6342 883.844 99.147C883.844 98.6664 883.775 98.2455 883.636 97.8842C883.5 97.523 883.298 97.2429 883.029 97.044C882.764 96.8419 882.438 96.7408 882.05 96.7408C881.649 96.7408 881.314 96.8452 881.045 97.054C880.777 97.2628 880.575 97.5495 880.439 97.9141C880.303 98.2753 880.235 98.6863 880.235 99.147C880.235 99.6143 880.303 100.024 880.439 100.375C880.578 100.723 880.782 100.995 881.05 101.19C881.322 101.383 881.655 101.479 882.05 101.479ZM892.331 99.7884V95.3636H894.131V103H892.386V101.643H892.306C892.134 102.07 891.85 102.42 891.456 102.692C891.065 102.964 890.583 103.099 890.009 103.099C889.509 103.099 889.066 102.988 888.682 102.766C888.301 102.541 888.002 102.214 887.787 101.787C887.571 101.356 887.464 100.836 887.464 100.226V95.3636H889.263V99.9474C889.263 100.431 889.396 100.816 889.661 101.101C889.926 101.386 890.274 101.528 890.705 101.528C890.97 101.528 891.227 101.464 891.476 101.335C891.724 101.205 891.928 101.013 892.087 100.758C892.25 100.499 892.331 100.176 892.331 99.7884ZM895.981 103V95.3636H897.726V96.6364H897.806C897.945 96.1955 898.184 95.8558 898.522 95.6172C898.863 95.3752 899.253 95.2543 899.69 95.2543C899.79 95.2543 899.901 95.2592 900.023 95.2692C900.149 95.2758 900.254 95.2874 900.336 95.304V96.9595C900.26 96.933 900.139 96.9098 899.974 96.8899C899.811 96.8667 899.654 96.8551 899.501 96.8551C899.173 96.8551 898.878 96.9264 898.616 97.0689C898.358 97.2081 898.154 97.402 898.005 97.6506C897.856 97.8991 897.781 98.1858 897.781 98.5107V103H895.981ZM904.598 103.149C903.833 103.149 903.172 102.99 902.615 102.672C902.061 102.35 901.635 101.896 901.337 101.31C901.039 100.72 900.89 100.025 900.89 99.2266C900.89 98.4411 901.039 97.7517 901.337 97.1584C901.639 96.5618 902.06 96.0978 902.6 95.7663C903.14 95.4316 903.775 95.2642 904.504 95.2642C904.975 95.2642 905.419 95.3404 905.836 95.4929C906.257 95.642 906.628 95.8741 906.95 96.1889C907.275 96.5038 907.53 96.9048 907.716 97.392C907.901 97.8759 907.994 98.4527 907.994 99.1222V99.674H901.735V98.4609H906.269C906.266 98.1162 906.191 97.8097 906.045 97.5412C905.899 97.2694 905.695 97.0556 905.434 96.8999C905.175 96.7441 904.873 96.6662 904.529 96.6662C904.161 96.6662 903.838 96.7557 903.559 96.9347C903.281 97.1103 903.064 97.3423 902.908 97.6307C902.756 97.9157 902.678 98.2289 902.674 98.5703V99.6293C902.674 100.073 902.756 100.455 902.918 100.773C903.08 101.088 903.307 101.33 903.599 101.499C903.891 101.664 904.232 101.747 904.623 101.747C904.885 101.747 905.122 101.711 905.334 101.638C905.546 101.562 905.73 101.451 905.886 101.305C906.042 101.159 906.159 100.978 906.239 100.763L907.919 100.952C907.813 101.396 907.611 101.784 907.313 102.115C907.018 102.443 906.64 102.698 906.179 102.881C905.719 103.06 905.192 103.149 904.598 103.149Z" fill="white"/>
<path d="M625.159 92.8182H627.416L630.438 100.196H630.558L633.58 92.8182H635.838V103H634.068V96.005H633.973L631.159 102.97H629.837L627.023 95.9901H626.928V103H625.159V92.8182ZM641.097 103.149C640.352 103.149 639.705 102.985 639.159 102.657C638.612 102.329 638.187 101.87 637.886 101.28C637.588 100.69 637.438 100 637.438 99.2116C637.438 98.4228 637.588 97.7318 637.886 97.1385C638.187 96.5452 638.612 96.0845 639.159 95.7564C639.705 95.4283 640.352 95.2642 641.097 95.2642C641.843 95.2642 642.49 95.4283 643.036 95.7564C643.583 96.0845 644.006 96.5452 644.304 97.1385C644.606 97.7318 644.757 98.4228 644.757 99.2116C644.757 100 644.606 100.69 644.304 101.28C644.006 101.87 643.583 102.329 643.036 102.657C642.49 102.985 641.843 103.149 641.097 103.149ZM641.107 101.707C641.512 101.707 641.85 101.596 642.122 101.374C642.393 101.149 642.596 100.847 642.728 100.469C642.864 100.092 642.932 99.6707 642.932 99.2067C642.932 98.7393 642.864 98.3168 642.728 97.9389C642.596 97.5578 642.393 97.2545 642.122 97.0291C641.85 96.8037 641.512 96.6911 641.107 96.6911C640.693 96.6911 640.348 96.8037 640.073 97.0291C639.802 97.2545 639.598 97.5578 639.462 97.9389C639.329 98.3168 639.263 98.7393 639.263 99.2067C639.263 99.6707 639.329 100.092 639.462 100.469C639.598 100.847 639.802 101.149 640.073 101.374C640.348 101.596 640.693 101.707 641.107 101.707ZM648.084 98.5256V103H646.284V95.3636H648.004V96.6612H648.094C648.269 96.2337 648.549 95.8939 648.934 95.642C649.322 95.3902 649.801 95.2642 650.371 95.2642C650.898 95.2642 651.357 95.3769 651.748 95.6023C652.142 95.8277 652.447 96.1541 652.663 96.5817C652.881 97.0092 652.989 97.5279 652.986 98.1378V103H651.186V98.4162C651.186 97.9058 651.054 97.5064 650.788 97.218C650.527 96.9297 650.164 96.7855 649.7 96.7855C649.385 96.7855 649.105 96.8551 648.859 96.9943C648.617 97.1302 648.427 97.3274 648.288 97.5859C648.152 97.8445 648.084 98.1577 648.084 98.5256ZM654.815 103V95.3636H656.615V103H654.815ZM655.72 94.2798C655.435 94.2798 655.19 94.1854 654.984 93.9964C654.779 93.8042 654.676 93.5739 654.676 93.3054C654.676 93.0336 654.779 92.8033 654.984 92.6143C655.19 92.4221 655.435 92.326 655.72 92.326C656.009 92.326 656.254 92.4221 656.456 92.6143C656.661 92.8033 656.764 93.0336 656.764 93.3054C656.764 93.5739 656.661 93.8042 656.456 93.9964C656.254 94.1854 656.009 94.2798 655.72 94.2798ZM662.279 95.3636V96.7557H657.889V95.3636H662.279ZM658.973 93.5341H660.773V100.703C660.773 100.945 660.809 101.131 660.882 101.26C660.958 101.386 661.058 101.472 661.18 101.518C661.303 101.565 661.439 101.588 661.588 101.588C661.701 101.588 661.803 101.58 661.896 101.563C661.992 101.547 662.065 101.532 662.115 101.518L662.418 102.925C662.322 102.959 662.184 102.995 662.006 103.035C661.83 103.075 661.614 103.098 661.359 103.104C660.908 103.118 660.502 103.05 660.141 102.901C659.78 102.748 659.493 102.513 659.281 102.195C659.072 101.876 658.97 101.479 658.973 101.001V93.5341ZM667.033 103.149C666.287 103.149 665.641 102.985 665.094 102.657C664.547 102.329 664.123 101.87 663.821 101.28C663.523 100.69 663.374 100 663.374 99.2116C663.374 98.4228 663.523 97.7318 663.821 97.1385C664.123 96.5452 664.547 96.0845 665.094 95.7564C665.641 95.4283 666.287 95.2642 667.033 95.2642C667.779 95.2642 668.425 95.4283 668.972 95.7564C669.519 96.0845 669.941 96.5452 670.24 97.1385C670.541 97.7318 670.692 98.4228 670.692 99.2116C670.692 100 670.541 100.69 670.24 101.28C669.941 101.87 669.519 102.329 668.972 102.657C668.425 102.985 667.779 103.149 667.033 103.149ZM667.043 101.707C667.447 101.707 667.785 101.596 668.057 101.374C668.329 101.149 668.531 100.847 668.664 100.469C668.8 100.092 668.868 99.6707 668.868 99.2067C668.868 98.7393 668.8 98.3168 668.664 97.9389C668.531 97.5578 668.329 97.2545 668.057 97.0291C667.785 96.8037 667.447 96.6911 667.043 96.6911C666.629 96.6911 666.284 96.8037 666.009 97.0291C665.737 97.2545 665.533 97.5578 665.397 97.9389C665.265 98.3168 665.199 98.7393 665.199 99.2067C665.199 99.6707 665.265 100.092 665.397 100.469C665.533 100.847 665.737 101.149 666.009 101.374C666.284 101.596 666.629 101.707 667.043 101.707ZM672.22 103V95.3636H673.965V96.6364H674.044C674.183 96.1955 674.422 95.8558 674.76 95.6172C675.102 95.3752 675.491 95.2543 675.928 95.2543C676.028 95.2543 676.139 95.2592 676.262 95.2692C676.387 95.2758 676.492 95.2874 676.575 95.304V96.9595C676.499 96.933 676.378 96.9098 676.212 96.8899C676.049 96.8667 675.892 96.8551 675.74 96.8551C675.411 96.8551 675.116 96.9264 674.855 97.0689C674.596 97.2081 674.392 97.402 674.243 97.6506C674.094 97.8991 674.019 98.1858 674.019 98.5107V103H672.22Z" fill="white"/>
<path d="M316.156 108V97.8182H319.974C320.756 97.8182 321.412 97.964 321.943 98.2557C322.476 98.5473 322.879 98.9484 323.151 99.4588C323.426 99.9659 323.563 100.543 323.563 101.189C323.563 101.842 323.426 102.422 323.151 102.929C322.876 103.436 322.47 103.835 321.933 104.127C321.396 104.415 320.734 104.56 319.949 104.56H317.418V103.043H319.7C320.158 103.043 320.532 102.964 320.824 102.805C321.116 102.646 321.331 102.427 321.47 102.148C321.613 101.87 321.684 101.55 321.684 101.189C321.684 100.828 321.613 100.509 321.47 100.234C321.331 99.9593 321.114 99.7455 320.819 99.593C320.527 99.4373 320.151 99.3594 319.69 99.3594H318V108H316.156ZM325.086 108V100.364H326.831V101.636H326.91C327.05 101.196 327.288 100.856 327.626 100.617C327.968 100.375 328.357 100.254 328.795 100.254C328.894 100.254 329.005 100.259 329.128 100.269C329.254 100.276 329.358 100.287 329.441 100.304V101.96C329.365 101.933 329.244 101.91 329.078 101.89C328.916 101.867 328.758 101.855 328.606 101.855C328.278 101.855 327.983 101.926 327.721 102.069C327.462 102.208 327.258 102.402 327.109 102.651C326.96 102.899 326.886 103.186 326.886 103.511V108H325.086ZM333.653 108.149C332.907 108.149 332.261 107.985 331.714 107.657C331.167 107.329 330.743 106.87 330.441 106.28C330.143 105.69 329.994 105 329.994 104.212C329.994 103.423 330.143 102.732 330.441 102.138C330.743 101.545 331.167 101.085 331.714 100.756C332.261 100.428 332.907 100.264 333.653 100.264C334.399 100.264 335.045 100.428 335.592 100.756C336.139 101.085 336.562 101.545 336.86 102.138C337.161 102.732 337.312 103.423 337.312 104.212C337.312 105 337.161 105.69 336.86 106.28C336.562 106.87 336.139 107.329 335.592 107.657C335.045 107.985 334.399 108.149 333.653 108.149ZM333.663 106.707C334.067 106.707 334.406 106.596 334.677 106.374C334.949 106.149 335.151 105.847 335.284 105.469C335.42 105.092 335.488 104.671 335.488 104.207C335.488 103.739 335.42 103.317 335.284 102.939C335.151 102.558 334.949 102.254 334.677 102.029C334.406 101.804 334.067 101.691 333.663 101.691C333.249 101.691 332.904 101.804 332.629 102.029C332.357 102.254 332.153 102.558 332.017 102.939C331.885 103.317 331.819 103.739 331.819 104.207C331.819 104.671 331.885 105.092 332.017 105.469C332.153 105.847 332.357 106.149 332.629 106.374C332.904 106.596 333.249 106.707 333.663 106.707ZM342.653 100.364V101.756H338.263V100.364H342.653ZM339.347 98.5341H341.147V105.703C341.147 105.945 341.183 106.131 341.256 106.26C341.332 106.386 341.432 106.472 341.554 106.518C341.677 106.565 341.813 106.588 341.962 106.588C342.075 106.588 342.177 106.58 342.27 106.563C342.366 106.547 342.439 106.532 342.489 106.518L342.792 107.925C342.696 107.959 342.559 107.995 342.38 108.035C342.204 108.075 341.988 108.098 341.733 108.104C341.282 108.118 340.876 108.05 340.515 107.901C340.154 107.748 339.867 107.513 339.655 107.195C339.446 106.876 339.344 106.479 339.347 106.001V98.5341ZM347.457 108.149C346.691 108.149 346.03 107.99 345.473 107.672C344.92 107.35 344.494 106.896 344.195 106.31C343.897 105.72 343.748 105.025 343.748 104.227C343.748 103.441 343.897 102.752 344.195 102.158C344.497 101.562 344.918 101.098 345.458 100.766C345.998 100.432 346.633 100.264 347.362 100.264C347.833 100.264 348.277 100.34 348.695 100.493C349.116 100.642 349.487 100.874 349.808 101.189C350.133 101.504 350.388 101.905 350.574 102.392C350.76 102.876 350.852 103.453 350.852 104.122V104.674H344.593V103.461H349.127C349.124 103.116 349.049 102.81 348.903 102.541C348.758 102.269 348.554 102.056 348.292 101.9C348.033 101.744 347.732 101.666 347.387 101.666C347.019 101.666 346.696 101.756 346.418 101.935C346.139 102.11 345.922 102.342 345.766 102.631C345.614 102.916 345.536 103.229 345.533 103.57V104.629C345.533 105.073 345.614 105.455 345.776 105.773C345.939 106.088 346.166 106.33 346.457 106.499C346.749 106.664 347.091 106.747 347.482 106.747C347.743 106.747 347.98 106.711 348.193 106.638C348.405 106.562 348.589 106.451 348.744 106.305C348.9 106.159 349.018 105.978 349.097 105.763L350.778 105.952C350.672 106.396 350.47 106.784 350.171 107.115C349.876 107.443 349.498 107.698 349.038 107.881C348.577 108.06 348.05 108.149 347.457 108.149ZM355.706 108.149C354.944 108.149 354.289 107.982 353.742 107.647C353.199 107.312 352.779 106.85 352.484 106.26C352.193 105.667 352.047 104.984 352.047 104.212C352.047 103.436 352.196 102.752 352.494 102.158C352.793 101.562 353.213 101.098 353.757 100.766C354.304 100.432 354.95 100.264 355.696 100.264C356.316 100.264 356.864 100.379 357.342 100.607C357.822 100.833 358.205 101.152 358.49 101.567C358.775 101.978 358.937 102.458 358.977 103.009H357.257C357.187 102.641 357.022 102.334 356.76 102.089C356.501 101.84 356.155 101.716 355.721 101.716C355.353 101.716 355.03 101.815 354.751 102.014C354.473 102.21 354.256 102.491 354.1 102.859C353.948 103.227 353.871 103.668 353.871 104.182C353.871 104.702 353.948 105.15 354.1 105.524C354.253 105.895 354.466 106.182 354.741 106.384C355.02 106.583 355.346 106.683 355.721 106.683C355.986 106.683 356.223 106.633 356.432 106.533C356.644 106.431 356.821 106.283 356.964 106.091C357.106 105.899 357.204 105.665 357.257 105.39H358.977C358.934 105.93 358.775 106.409 358.5 106.827C358.225 107.241 357.85 107.566 357.376 107.801C356.902 108.033 356.346 108.149 355.706 108.149ZM364.268 100.364V101.756H359.878V100.364H364.268ZM360.962 98.5341H362.762V105.703C362.762 105.945 362.798 106.131 362.871 106.26C362.947 106.386 363.047 106.472 363.169 106.518C363.292 106.565 363.428 106.588 363.577 106.588C363.69 106.588 363.793 106.58 363.885 106.563C363.982 106.547 364.054 106.532 364.104 106.518L364.407 107.925C364.311 107.959 364.174 107.995 363.995 108.035C363.819 108.075 363.604 108.098 363.348 108.104C362.898 108.118 362.492 108.05 362.13 107.901C361.769 107.748 361.482 107.513 361.27 107.195C361.062 106.876 360.959 106.479 360.962 106.001V98.5341Z" fill="white"/>
</svg>
